sim/tb_alu.vcd
$version Generated by VerilatedVcd $end
$timescale 1ps $end
 $scope module TOP $end
  $scope module tb_alu $end
   $var wire 5 ^ OP_ADD [4:0] $end
   $var wire 5 _ OP_ADC [4:0] $end
   $var wire 5 ` OP_SUB [4:0] $end
   $var wire 5 a OP_SBC [4:0] $end
   $var wire 5 b OP_AND [4:0] $end
   $var wire 5 c OP_XOR [4:0] $end
   $var wire 5 d OP_OR [4:0] $end
   $var wire 5 e OP_CP [4:0] $end
   $var wire 5 f OP_RLC [4:0] $end
   $var wire 5 g OP_RRC [4:0] $end
   $var wire 5 h OP_RL [4:0] $end
   $var wire 5 i OP_RR [4:0] $end
   $var wire 5 j OP_SLA [4:0] $end
   $var wire 5 k OP_SRA [4:0] $end
   $var wire 5 l OP_SWAP [4:0] $end
   $var wire 5 m OP_SRL [4:0] $end
   $var wire 5 n OP_BIT [4:0] $end
   $var wire 5 o OP_RES [4:0] $end
   $var wire 5 p OP_SET [4:0] $end
   $var wire 2 q Z [1:0] $end
   $var wire 2 r N [1:0] $end
   $var wire 2 s H [1:0] $end
   $var wire 2 t C [1:0] $end
   $var wire 32 u NUM_TESTS [31:0] $end
   $var wire 8 # alu_a [7:0] $end
   $var wire 8 $ alu_b [7:0] $end
   $var wire 3 v bit_index [2:0] $end
   $var wire 8 Z alu_res [7:0] $end
   $var wire 4 % alu_flags_in [3:0] $end
   $var wire 4 [ alu_flags_out [3:0] $end
   $var wire 5 & alu_op [4:0] $end
   $var wire 32 ' tests_failed [31:0] $end
   $var wire 32 ( log_file [31:0] $end
   $var wire 32 ) test_add_value__Vstatic__a [31:0] $end
   $var wire 32 * test_add_value__Vstatic__b [31:0] $end
   $var wire 32 + test_add_value__Vstatic__expected [31:0] $end
   $var wire 32 , test_add_flags__Vstatic__a [31:0] $end
   $var wire 32 - test_add_flags__Vstatic__b [31:0] $end
   $var wire 32 . test_add_flags__Vstatic__expected [31:0] $end
   $var wire 32 / test_add_flags__Vstatic__expected_h [31:0] $end
   $var wire 32 0 test_add_flags__Vstatic__expected_c [31:0] $end
   $var wire 32 1 test_add_carry_value__Vstatic__a [31:0] $end
   $var wire 32 2 test_add_carry_value__Vstatic__b [31:0] $end
   $var wire 32 3 test_add_carry_value__Vstatic__expected [31:0] $end
   $var wire 32 4 test_add_carry_value__Vstatic__flags [31:0] $end
   $var wire 32 5 test_add_carry_flags__Vstatic__a [31:0] $end
   $var wire 32 6 test_add_carry_flags__Vstatic__b [31:0] $end
   $var wire 32 7 test_add_carry_flags__Vstatic__expected [31:0] $end
   $var wire 32 8 test_add_carry_flags__Vstatic__expected_h [31:0] $end
   $var wire 32 9 test_add_carry_flags__Vstatic__expected_c [31:0] $end
   $var wire 32 : test_sub_value__Vstatic__a [31:0] $end
   $var wire 32 ; test_sub_value__Vstatic__b [31:0] $end
   $var wire 32 < test_sub_value__Vstatic__expected [31:0] $end
   $var wire 32 = test_sub_flags_test__Vstatic__a [31:0] $end
   $var wire 32 > test_sub_flags_test__Vstatic__b [31:0] $end
   $var wire 32 ? test_sub_flags_test__Vstatic__expected_h [31:0] $end
   $var wire 32 @ test_sub_flags_test__Vstatic__expected_c [31:0] $end
   $var wire 32 A test_sub_carry_value__Vstatic__a [31:0] $end
   $var wire 32 B test_sub_carry_value__Vstatic__b [31:0] $end
   $var wire 32 C test_sub_carry_value__Vstatic__expected [31:0] $end
   $var wire 32 D test_sub_carry_value__Vstatic__flags [31:0] $end
   $var wire 32 E test_sub_carry_flags_test__Vstatic__a [31:0] $end
   $var wire 32 F test_sub_carry_flags_test__Vstatic__b [31:0] $end
   $var wire 32 G test_sub_carry_flags_test__Vstatic__expected_h [31:0] $end
   $var wire 32 H test_sub_carry_flags_test__Vstatic__expected_c [31:0] $end
   $var wire 32 I test_sub_carry_flags_test__Vstatic__flags [31:0] $end
   $var wire 32 w test_sub_carry_flags_test__Vstatic__expected [31:0] $end
   $var wire 32 J test_and__Vstatic__a [31:0] $end
   $var wire 32 K test_and__Vstatic__b [31:0] $end
   $var wire 32 L test_and__Vstatic__expected [31:0] $end
   $var wire 32 M test_xor__Vstatic__a [31:0] $end
   $var wire 32 N test_xor__Vstatic__b [31:0] $end
   $var wire 32 O test_xor__Vstatic__expected [31:0] $end
   $var wire 32 P test_or__Vstatic__a [31:0] $end
   $var wire 32 Q test_or__Vstatic__b [31:0] $end
   $var wire 32 R test_or__Vstatic__expected [31:0] $end
   $scope module dut $end
    $var wire 8 # alu_a [7:0] $end
    $var wire 8 $ alu_b [7:0] $end
    $var wire 3 v bit_index [2:0] $end
    $var wire 8 Z alu_res [7:0] $end
    $var wire 4 % alu_flags_in [3:0] $end
    $var wire 4 [ alu_flags_out [3:0] $end
    $var wire 5 & alu_op [4:0] $end
    $var wire 9 \ alu_res_buffer [8:0] $end
    $var wire 8 ] varZ [7:0] $end
   $upscope $end
   $scope module unnamedblk1 $end
    $var wire 32 S i [31:0] $end
   $upscope $end
   $scope module unnamedblk2 $end
    $var wire 32 T i [31:0] $end
   $upscope $end
   $scope module unnamedblk3 $end
    $var wire 32 U i [31:0] $end
   $upscope $end
   $scope module unnamedblk4 $end
    $var wire 32 V i [31:0] $end
   $upscope $end
   $scope module unnamedblk5 $end
    $var wire 32 W i [31:0] $end
   $upscope $end
   $scope module unnamedblk6 $end
    $var wire 32 X i [31:0] $end
   $upscope $end
   $scope module unnamedblk7 $end
    $var wire 32 Y i [31:0] $end
   $upscope $end
  $upscope $end
 $upscope $end
$enddefinitions $end


#0
b11000100 #
b10011100 $
b0000 %
b00001 &
b00000000000000000000000000000000 '
b10000000000000000000000000101100 (
b00000000000000000000000011000100 )
b00000000000000000000000010011100 *
b00000000000000000000000101100000 +
b00000000000000000000000000000000 ,
b00000000000000000000000000000000 -
b00000000000000000000000000000000 .
b00000000000000000000000000000000 /
b00000000000000000000000000000000 0
b00000000000000000000000000000000 1
b00000000000000000000000000000000 2
b00000000000000000000000000000000 3
b00000000000000000000000000000000 4
b00000000000000000000000000000000 5
b00000000000000000000000000000000 6
b00000000000000000000000000000000 7
b00000000000000000000000000000000 8
b00000000000000000000000000000000 9
b00000000000000000000000000000000 :
b00000000000000000000000000000000 ;
b00000000000000000000000000000000 <
b00000000000000000000000000000000 =
b00000000000000000000000000000000 >
b00000000000000000000000000000000 ?
b00000000000000000000000000000000 @
b00000000000000000000000000000000 A
b00000000000000000000000000000000 B
b00000000000000000000000000000000 C
b00000000000000000000000000000000 D
b00000000000000000000000000000000 E
b00000000000000000000000000000000 F
b00000000000000000000000000000000 G
b00000000000000000000000000000000 H
b00000000000000000000000000000000 I
b00000000000000000000000000000000 J
b00000000000000000000000000000000 K
b00000000000000000000000000000000 L
b00000000000000000000000000000000 M
b00000000000000000000000000000000 N
b00000000000000000000000000000000 O
b00000000000000000000000000000000 P
b00000000000000000000000000000000 Q
b00000000000000000000000000000000 R
b00000000000000000000000000000000 S
b00000000000000000000000000000000 T
b00000000000000000000000000000000 U
b00000000000000000000000000000000 V
b00000000000000000000000000000000 W
b00000000000000000000000000000000 X
b00000000000000000000000000000000 Y
b01100000 Z
b0001 [
b101100000 \
b00000000 ]
b00001 ^
b00010 _
b00011 `
b00100 a
b00101 b
b00110 c
b00111 d
b01000 e
b01001 f
b01010 g
b01011 h
b01100 i
b01101 j
b01110 k
b01111 l
b10000 m
b10001 n
b10010 o
b10011 p
b11 q
b10 r
b01 s
b00 t
b00000000000000000000001111101000 u
b000 v
b00000000000000000000000000000000 w
#1000
b00000010 #
b11100100 $
b00000000000000000000000000000010 ,
b00000000000000000000000011100100 -
b00000000000000000000000011100110 .
b11100110 Z
b0000 [
b011100110 \
#2000
b01111000 #
b10111100 $
b00000000000000000000000001111000 )
b00000000000000000000000010111100 *
b00000000000000000000000100110100 +
b00000000000000000000000000000001 S
b00110100 Z
b0001 [
b100110100 \
#3000
b10110110 #
b11100100 $
b00000000000000000000000010110110 ,
b00000000000000000000000110011010 .
b00000000000000000000000000000001 /
b00000000000000000000000000000001 0
b10011010 Z
b0011 [
b110011010 \
#4000
b10110111 #
b01010011 $
b00000000000000000000000010110111 )
b00000000000000000000000001010011 *
b00000000000000000000000100001010 +
b00000000000000000000000000000010 S
b00001010 Z
b100001010 \
#5000
b00100001 #
b11100001 $
b00000000000000000000000000100001 ,
b00000000000000000000000011100001 -
b00000000000000000000000100000010 .
b00000000000000000000000000000000 /
b00000010 Z
b0001 [
b100000010 \
#6000
b11000101 #
b10000010 $
b00000000000000000000000011000101 )
b00000000000000000000000010000010 *
b00000000000000000000000101000111 +
b00000000000000000000000000000011 S
b01000111 Z
b101000111 \
#7000
b01100010 #
b00110101 $
b00000000000000000000000001100010 ,
b00000000000000000000000000110101 -
b00000000000000000000000010010111 .
b00000000000000000000000000000000 0
b10010111 Z
b0000 [
b010010111 \
#8000
b00010010 #
b01010110 $
b00000000000000000000000000010010 )
b00000000000000000000000001010110 *
b00000000000000000000000001101000 +
b00000000000000000000000000000100 S
b01101000 Z
b0010 [
b001101000 \
#9000
b11111101 #
b11110100 $
b00000000000000000000000011111101 ,
b00000000000000000000000011110100 -
b00000000000000000000000111110001 .
b00000000000000000000000000000001 0
b11110001 Z
b0001 [
b111110001 \
#10000
b00111011 #
b01011000 $
b00000000000000000000000000111011 )
b00000000000000000000000001011000 *
b00000000000000000000000010010011 +
b00000000000000000000000000000101 S
b10010011 Z
b0000 [
b010010011 \
#11000
b10110010 #
b01011100 $
b00000000000000000000000010110010 ,
b00000000000000000000000001011100 -
b00000000000000000000000100001110 .
b00000000000000000000000000000001 /
b00001110 Z
b0011 [
b100001110 \
#12000
b00011110 #
b10011110 $
b00000000000000000000000000011110 )
b00000000000000000000000010011110 *
b00000000000000000000000010111100 +
b00000000000000000000000000000110 S
b10111100 Z
b0010 [
b010111100 \
#13000
b10011110 #
b11101110 $
b00000000000000000000000010011110 ,
b00000000000000000000000011101110 -
b00000000000000000000000110001100 .
b10001100 Z
b0011 [
b110001100 \
#14000
b00010000 #
b01110110 $
b00000000000000000000000000010000 )
b00000000000000000000000001110110 *
b00000000000000000000000010000110 +
b00000000000000000000000000000111 S
b10000110 Z
b0000 [
b010000110 \
#15000
b01100011 #
b11000000 $
b00000000000000000000000001100011 ,
b00000000000000000000000011000000 -
b00000000000000000000000100100011 .
b00000000000000000000000000000000 /
b00100011 Z
b0001 [
b100100011 \
#16000
b00011101 #
b00100010 $
b00000000000000000000000000011101 )
b00000000000000000000000000100010 *
b00000000000000000000000000111111 +
b00000000000000000000000000001000 S
b00111111 Z
b0010 [
b000111111 \
#17000
b00000110 #
b10000001 $
b00000000000000000000000000000110 ,
b00000000000000000000000010000001 -
b00000000000000000000000010000111 .
b00000000000000000000000000000000 0
b10000111 Z
b0000 [
b010000111 \
#18000
b01100011 #
b01111000 $
b00000000000000000000000001100011 )
b00000000000000000000000001111000 *
b00000000000000000000000011011011 +
b00000000000000000000000000001001 S
b11011011 Z
b0010 [
b011011011 \
#19000
b01101111 #
b11001110 $
b00000000000000000000000001101111 ,
b00000000000000000000000011001110 -
b00000000000000000000000100111101 .
b00000000000000000000000000000001 /
b00000000000000000000000000000001 0
b00111101 Z
b0011 [
b100111101 \
#20000
b11110111 #
b11010001 $
b00000000000000000000000011110111 )
b00000000000000000000000011010001 *
b00000000000000000000000111001000 +
b00000000000000000000000000001010 S
b11001000 Z
b111001000 \
#21000
b10011110 #
b01110111 $
b00000000000000000000000010011110 ,
b00000000000000000000000001110111 -
b00000000000000000000000100010101 .
b00000000000000000000000000000000 /
b00010101 Z
b0001 [
b100010101 \
#22000
b01101110 #
b10101000 $
b00000000000000000000000001101110 )
b00000000000000000000000010101000 *
b00000000000000000000000100010110 +
b00000000000000000000000000001011 S
b00010110 Z
b100010110 \
#23000
b01001111 #
b10111011 $
b00000000000000000000000001001111 ,
b00000000000000000000000010111011 -
b00000000000000000000000100001010 .
b00000000000000000000000000000001 /
b00001010 Z
b0011 [
b100001010 \
#24000
b10010100 #
b11100010 $
b00000000000000000000000010010100 )
b00000000000000000000000011100010 *
b00000000000000000000000101110110 +
b00000000000000000000000000001100 S
b01110110 Z
b0001 [
b101110110 \
#25000
b01100110 #
b00011111 $
b00000000000000000000000001100110 ,
b00000000000000000000000000011111 -
b00000000000000000000000010000101 .
b00000000000000000000000000000000 /
b00000000000000000000000000000000 0
b10000101 Z
b0000 [
b010000101 \
#26000
b00001001 #
b11100011 $
b00000000000000000000000000001001 )
b00000000000000000000000011100011 *
b00000000000000000000000011101100 +
b00000000000000000000000000001101 S
b11101100 Z
b0010 [
b011101100 \
#27000
b00011111 #
b10000100 $
b00000000000000000000000000011111 ,
b00000000000000000000000010000100 -
b00000000000000000000000010100011 .
b10100011 Z
b0000 [
b010100011 \
#28000
b11000101 #
b00110011 $
b00000000000000000000000011000101 )
b00000000000000000000000000110011 *
b00000000000000000000000011111000 +
b00000000000000000000000000001110 S
b11111000 Z
b0010 [
b011111000 \
#29000
b01001011 #
b10011100 $
b00000000000000000000000001001011 ,
b00000000000000000000000010011100 -
b00000000000000000000000011100111 .
b11100111 Z
b0000 [
b011100111 \
#30000
b11110011 #
b11001001 $
b00000000000000000000000011110011 )
b00000000000000000000000011001001 *
b00000000000000000000000110111100 +
b00000000000000000000000000001111 S
b10111100 Z
b0011 [
b110111100 \
#31000
b11101101 #
b11001010 $
b00000000000000000000000011101101 ,
b00000000000000000000000011001010 -
b00000000000000000000000110110111 .
b00000000000000000000000000000001 0
b10110111 Z
b0001 [
b110110111 \
#32000
b01011101 #
b01000111 $
b00000000000000000000000001011101 )
b00000000000000000000000001000111 *
b00000000000000000000000010100100 +
b00000000000000000000000000010000 S
b10100100 Z
b0000 [
b010100100 \
#33000
b00100100 #
b11101111 $
b00000000000000000000000000100100 ,
b00000000000000000000000011101111 -
b00000000000000000000000100010011 .
b00010011 Z
b0001 [
b100010011 \
#34000
b10101001 #
b01101101 $
b00000000000000000000000010101001 )
b00000000000000000000000001101101 *
b00000000000000000000000100010110 +
b00000000000000000000000000010001 S
b00010110 Z
b100010110 \
#35000
b00111001 #
b01111000 $
b00000000000000000000000000111001 ,
b00000000000000000000000001111000 -
b00000000000000000000000010110001 .
b00000000000000000000000000000000 0
b10110001 Z
b0000 [
b010110001 \
#36000
b11101010 #
b11000010 $
b00000000000000000000000011101010 )
b00000000000000000000000011000010 *
b00000000000000000000000110101100 +
b00000000000000000000000000010010 S
b10101100 Z
b0011 [
b110101100 \
#37000
b01010100 #
b01010100 $
b00000000000000000000000001010100 ,
b00000000000000000000000001010100 -
b00000000000000000000000010101000 .
b00000000000000000000000000000001 /
b10101000 Z
b0010 [
b010101000 \
#38000
b00100011 #
b10011101 $
b00000000000000000000000000100011 )
b00000000000000000000000010011101 *
b00000000000000000000000011000000 +
b00000000000000000000000000010011 S
b11000000 Z
b0000 [
b011000000 \
#39000
b10110011 #
b10101101 $
b00000000000000000000000010110011 ,
b00000000000000000000000010101101 -
b00000000000000000000000101100000 .
b00000000000000000000000000000000 /
b00000000000000000000000000000001 0
b01100000 Z
b0001 [
b101100000 \
#40000
b11010101 #
b00101110 $
b00000000000000000000000011010101 )
b00000000000000000000000000101110 *
b00000000000000000000000100000011 +
b00000000000000000000000000010100 S
b00000011 Z
b100000011 \
#41000
b11001111 #
b00000101 $
b00000000000000000000000011001111 ,
b00000000000000000000000000000101 -
b00000000000000000000000011010100 .
b00000000000000000000000000000000 0
b11010100 Z
b0000 [
b011010100 \
#42000
b11010111 #
b10001001 $
b00000000000000000000000011010111 )
b00000000000000000000000010001001 *
b00000000000000000000000101100000 +
b00000000000000000000000000010101 S
b01100000 Z
b0001 [
b101100000 \
#43000
b11110110 #
b10101111 $
b00000000000000000000000011110110 ,
b00000000000000000000000010101111 -
b00000000000000000000000110100101 .
b00000000000000000000000000000001 0
b10100101 Z
b110100101 \
#44000
b11101111 #
b10011101 $
b00000000000000000000000011101111 )
b00000000000000000000000010011101 *
b00000000000000000000000110001100 +
b00000000000000000000000000010110 S
b10001100 Z
b0011 [
b110001100 \
#45000
b00111111 #
b11001111 $
b00000000000000000000000000111111 ,
b00000000000000000000000011001111 -
b00000000000000000000000100001110 .
b00000000000000000000000000000001 /
b00001110 Z
b100001110 \
#46000
b00101010 #
b01110111 $
b00000000000000000000000000101010 )
b00000000000000000000000001110111 *
b00000000000000000000000010100001 +
b00000000000000000000000000010111 S
b10100001 Z
b0000 [
b010100001 \
#47000
b10011010 #
b00001011 $
b00000000000000000000000010011010 ,
b00000000000000000000000000001011 -
b00000000000000000000000010100101 .
b00000000000000000000000000000000 /
b00000000000000000000000000000000 0
b10100101 Z
b010100101 \
#48000
b01010011 #
b10101111 $
b00000000000000000000000001010011 )
b00000000000000000000000010101111 *
b00000000000000000000000100000010 +
b00000000000000000000000000011000 S
b00000010 Z
b0001 [
b100000010 \
#49000
b10001100 #
b00000010 $
b00000000000000000000000010001100 ,
b00000000000000000000000000000010 -
b00000000000000000000000010001110 .
b00000000000000000000000000000001 /
b10001110 Z
b0010 [
b010001110 \
#50000
b11111011 #
b11101000 $
b00000000000000000000000011111011 )
b00000000000000000000000011101000 *
b00000000000000000000000111100011 +
b00000000000000000000000000011001 S
b11100011 Z
b0001 [
b111100011 \
#51000
b11000010 #
b11011101 $
b00000000000000000000000011000010 ,
b00000000000000000000000011011101 -
b00000000000000000000000110011111 .
b00000000000000000000000000000001 0
b10011111 Z
b0011 [
b110011111 \
#52000
b11001000 #
b01100100 $
b00000000000000000000000011001000 )
b00000000000000000000000001100100 *
b00000000000000000000000100101100 +
b00000000000000000000000000011010 S
b00101100 Z
b100101100 \
#53000
b01100001 #
b11100101 $
b00000000000000000000000001100001 ,
b00000000000000000000000011100101 -
b00000000000000000000000101000110 .
b00000000000000000000000000000000 /
b01000110 Z
b0001 [
b101000110 \
#54000
b00100001 #
b11110011 $
b00000000000000000000000000100001 )
b00000000000000000000000011110011 *
b00000000000000000000000100010100 +
b00000000000000000000000000011011 S
b00010100 Z
b100010100 \
#55000
b01011001 #
b11110101 $
b00000000000000000000000001011001 ,
b00000000000000000000000011110101 -
b00000000000000000000000101001110 .
b00000000000000000000000000000001 /
b01001110 Z
b0011 [
b101001110 \
#56000
b10111101 #
b01111110 $
b00000000000000000000000010111101 )
b00000000000000000000000001111110 *
b00000000000000000000000100111011 +
b00000000000000000000000000011100 S
b00111011 Z
b100111011 \
#57000
b01100010 #
b11001010 $
b00000000000000000000000001100010 ,
b00000000000000000000000011001010 -
b00000000000000000000000100101100 .
b00101100 Z
b100101100 \
#58000
b10010000 #
b01000101 $
b00000000000000000000000010010000 )
b00000000000000000000000001000101 *
b00000000000000000000000011010101 +
b00000000000000000000000000011101 S
b11010101 Z
b0000 [
b011010101 \
#59000
b01011000 #
b00010000 $
b00000000000000000000000001011000 ,
b00000000000000000000000000010000 -
b00000000000000000000000001101000 .
b00000000000000000000000000000000 0
b01101000 Z
b0010 [
b001101000 \
#60000
b01100000 #
b01110011 $
b00000000000000000000000001100000 )
b00000000000000000000000001110011 *
b00000000000000000000000011010011 +
b00000000000000000000000000011110 S
b11010011 Z
b0000 [
b011010011 \
#61000
b11111100 #
b00111101 $
b00000000000000000000000011111100 ,
b00000000000000000000000000111101 -
b00000000000000000000000100111001 .
b00000000000000000000000000000001 0
b00111001 Z
b0011 [
b100111001 \
#62000
b01101100 #
b00001110 $
b00000000000000000000000001101100 )
b00000000000000000000000000001110 *
b00000000000000000000000001111010 +
b00000000000000000000000000011111 S
b01111010 Z
b0010 [
b001111010 \
#63000
b11100111 #
b00110111 $
b00000000000000000000000011100111 ,
b00000000000000000000000000110111 -
b00000000000000000000000100011110 .
b00011110 Z
b0011 [
b100011110 \
#64000
b01000111 #
b01000000 $
b00000000000000000000000001000111 )
b00000000000000000000000001000000 *
b00000000000000000000000010000111 +
b00000000000000000000000000100000 S
b10000111 Z
b0000 [
b010000111 \
#65000
b00110011 #
b00011100 $
b00000000000000000000000000110011 ,
b00000000000000000000000000011100 -
b00000000000000000000000001001111 .
b00000000000000000000000000000000 0
b01001111 Z
b0010 [
b001001111 \
#66000
b10110110 #
b11010111 $
b00000000000000000000000010110110 )
b00000000000000000000000011010111 *
b00000000000000000000000110001101 +
b00000000000000000000000000100001 S
b10001101 Z
b0011 [
b110001101 \
#67000
b00111010 #
b01100111 $
b00000000000000000000000000111010 ,
b00000000000000000000000001100111 -
b00000000000000000000000010100001 .
b00000000000000000000000000000000 /
b10100001 Z
b0000 [
b010100001 \
#68000
b01010011 #
b10000100 $
b00000000000000000000000001010011 )
b00000000000000000000000010000100 *
b00000000000000000000000011010111 +
b00000000000000000000000000100010 S
b11010111 Z
b011010111 \
#69000
b11110100 #
b11100100 $
b00000000000000000000000011110100 ,
b00000000000000000000000011100100 -
b00000000000000000000000111011000 .
b00000000000000000000000000000001 /
b00000000000000000000000000000001 0
b11011000 Z
b0011 [
b111011000 \
#70000
b00101000 #
b01100111 $
b00000000000000000000000000101000 )
b00000000000000000000000001100111 *
b00000000000000000000000010001111 +
b00000000000000000000000000100011 S
b10001111 Z
b0010 [
b010001111 \
#71000
b10010101 #
b00111100 $
b00000000000000000000000010010101 ,
b00000000000000000000000000111100 -
b00000000000000000000000011010001 .
b00000000000000000000000000000000 /
b00000000000000000000000000000000 0
b11010001 Z
b0000 [
b011010001 \
#72000
b01100100 #
b10010101 $
b00000000000000000000000001100100 )
b00000000000000000000000010010101 *
b00000000000000000000000011111001 +
b00000000000000000000000000100100 S
b11111001 Z
b0010 [
b011111001 \
#73000
b10001010 #
b00111101 $
b00000000000000000000000010001010 ,
b00000000000000000000000000111101 -
b00000000000000000000000011000111 .
b11000111 Z
b0000 [
b011000111 \
#74000
b01111111 #
b01011011 $
b00000000000000000000000001111111 )
b00000000000000000000000001011011 *
b00000000000000000000000011011010 +
b00000000000000000000000000100101 S
b11011010 Z
b0010 [
b011011010 \
#75000
b11011100 #
b11101100 $
b00000000000000000000000011011100 ,
b00000000000000000000000011101100 -
b00000000000000000000000111001000 .
b00000000000000000000000000000001 /
b00000000000000000000000000000001 0
b11001000 Z
b0011 [
b111001000 \
#76000
b11000110 #
b01000110 $
b00000000000000000000000011000110 )
b00000000000000000000000001000110 *
b00000000000000000000000100001100 +
b00000000000000000000000000100110 S
b00001100 Z
b100001100 \
#77000
b01111001 #
b00000100 $
b00000000000000000000000001111001 ,
b00000000000000000000000000000100 -
b00000000000000000000000001111101 .
b00000000000000000000000000000000 0
b01111101 Z
b0010 [
b001111101 \
#78000
b11010100 #
b00110100 $
b00000000000000000000000011010100 )
b00000000000000000000000000110100 *
b00000000000000000000000100001000 +
b00000000000000000000000000100111 S
b00001000 Z
b0011 [
b100001000 \
#79000
b10111101 #
b00011011 $
b00000000000000000000000010111101 ,
b00000000000000000000000000011011 -
b00000000000000000000000011011000 .
b11011000 Z
b0010 [
b011011000 \
#80000
b00000010 #
b01110001 $
b00000000000000000000000000000010 )
b00000000000000000000000001110001 *
b00000000000000000000000001110011 +
b00000000000000000000000000101000 S
b01110011 Z
b0000 [
b001110011 \
#81000
b01010011 #
b01100011 $
b00000000000000000000000001010011 ,
b00000000000000000000000001100011 -
b00000000000000000000000010110110 .
b00000000000000000000000000000000 /
b10110110 Z
b010110110 \
#82000
b11011110 #
b11110000 $
b00000000000000000000000011011110 )
b00000000000000000000000011110000 *
b00000000000000000000000111001110 +
b00000000000000000000000000101001 S
b11001110 Z
b0011 [
b111001110 \
#83000
b00000100 #
b01011111 $
b00000000000000000000000000000100 ,
b00000000000000000000000001011111 -
b00000000000000000000000001100011 .
b01100011 Z
b0000 [
b001100011 \
#84000
b11111000 #
b00100011 $
b00000000000000000000000011111000 )
b00000000000000000000000000100011 *
b00000000000000000000000100011011 +
b00000000000000000000000000101010 S
b00011011 Z
b0011 [
b100011011 \
#85000
b10000000 #
b01100001 $
b00000000000000000000000010000000 ,
b00000000000000000000000001100001 -
b00000000000000000000000011100001 .
b11100001 Z
b0000 [
b011100001 \
#86000
b01100001 #
b01010111 $
b00000000000000000000000001100001 )
b00000000000000000000000001010111 *
b00000000000000000000000010111000 +
b00000000000000000000000000101011 S
b10111000 Z
b0010 [
b010111000 \
#87000
b11010010 #
b11111100 $
b00000000000000000000000011010010 ,
b00000000000000000000000011111100 -
b00000000000000000000000111001110 .
b00000000000000000000000000000001 /
b00000000000000000000000000000001 0
b11001110 Z
b0011 [
b111001110 \
#88000
b10111100 #
b01111011 $
b00000000000000000000000010111100 )
b00000000000000000000000001111011 *
b00000000000000000000000100110111 +
b00000000000000000000000000101100 S
b00110111 Z
b0001 [
b100110111 \
#89000
b00110001 #
b01111110 $
b00000000000000000000000000110001 ,
b00000000000000000000000001111110 -
b00000000000000000000000010101111 .
b00000000000000000000000000000000 0
b10101111 Z
b0010 [
b010101111 \
#90000
b11101101 #
b01100100 $
b00000000000000000000000011101101 )
b00000000000000000000000001100100 *
b00000000000000000000000101010001 +
b00000000000000000000000000101101 S
b01010001 Z
b0001 [
b101010001 \
#91000
b11010100 #
b10111101 $
b00000000000000000000000011010100 ,
b00000000000000000000000010111101 -
b00000000000000000000000110010001 .
b00000000000000000000000000000000 /
b00000000000000000000000000000001 0
b10010001 Z
b110010001 \
#92000
b00010100 #
b11001011 $
b00000000000000000000000000010100 )
b00000000000000000000000011001011 *
b00000000000000000000000011011111 +
b00000000000000000000000000101110 S
b11011111 Z
b0010 [
b011011111 \
#93000
b11001011 #
b11011011 $
b00000000000000000000000011001011 ,
b00000000000000000000000011011011 -
b00000000000000000000000110100110 .
b10100110 Z
b0001 [
b110100110 \
#94000
b11101001 #
b01001110 $
b00000000000000000000000011101001 )
b00000000000000000000000001001110 *
b00000000000000000000000100110111 +
b00000000000000000000000000101111 S
b00110111 Z
b100110111 \
#95000
b00100100 #
b01000010 $
b00000000000000000000000000100100 ,
b00000000000000000000000001000010 -
b00000000000000000000000001100110 .
b00000000000000000000000000000000 0
b01100110 Z
b0000 [
b001100110 \
#96000
b00000111 #
b00000000 $
b00000000000000000000000000000111 )
b00000000000000000000000000000000 *
b00000000000000000000000000000111 +
b00000000000000000000000000110000 S
b00000111 Z
b000000111 \
#97000
b11010110 #
b00111111 $
b00000000000000000000000011010110 ,
b00000000000000000000000000111111 -
b00000000000000000000000100010101 .
b00000000000000000000000000000001 0
b00010101 Z
b0001 [
b100010101 \
#98000
b00111001 #
b11111001 $
b00000000000000000000000000111001 )
b00000000000000000000000011111001 *
b00000000000000000000000100110010 +
b00000000000000000000000000110001 S
b00110010 Z
b100110010 \
#99000
b11010111 #
b01111010 $
b00000000000000000000000011010111 ,
b00000000000000000000000001111010 -
b00000000000000000000000101010001 .
b01010001 Z
b101010001 \
#100000
b01110110 #
b01111100 $
b00000000000000000000000001110110 )
b00000000000000000000000001111100 *
b00000000000000000000000011110010 +
b00000000000000000000000000110010 S
b11110010 Z
b0000 [
b011110010 \
#101000
b01000010 #
b10101110 $
b00000000000000000000000001000010 ,
b00000000000000000000000010101110 -
b00000000000000000000000011110000 .
b00000000000000000000000000000000 0
b11110000 Z
b011110000 \
#102000
b01110110 #
b00101011 $
b00000000000000000000000000101011 *
b00000000000000000000000010100001 +
b00000000000000000000000000110011 S
b10100001 Z
b010100001 \
#103000
b00100111 #
b11010010 $
b00000000000000000000000000100111 ,
b00000000000000000000000011010010 -
b00000000000000000000000011111001 .
b00000000000000000000000000000001 /
b11111001 Z
b0010 [
b011111001 \
#104000
b10100010 #
b00000110 $
b00000000000000000000000010100010 )
b00000000000000000000000000000110 *
b00000000000000000000000010101000 +
b00000000000000000000000000110100 S
b10101000 Z
b010101000 \
#105000
b00001001 #
b00001111 $
b00000000000000000000000000001001 ,
b00000000000000000000000000001111 -
b00000000000000000000000000011000 .
b00011000 Z
b000011000 \
#106000
b11011100 #
b11100100 $
b00000000000000000000000011011100 )
b00000000000000000000000011100100 *
b00000000000000000000000111000000 +
b00000000000000000000000000110101 S
b11000000 Z
b0001 [
b111000000 \
#107000
b01011001 #
b01111001 $
b00000000000000000000000001011001 ,
b00000000000000000000000001111001 -
b00000000000000000000000011010010 .
b00000000000000000000000000000000 /
b11010010 Z
b0000 [
b011010010 \
#108000
b10101100 #
b10000000 $
b00000000000000000000000010101100 )
b00000000000000000000000010000000 *
b00000000000000000000000100101100 +
b00000000000000000000000000110110 S
b00101100 Z
b0011 [
b100101100 \
#109000
b11110111 #
b11101010 $
b00000000000000000000000011110111 ,
b00000000000000000000000011101010 -
b00000000000000000000000111100001 .
b00000000000000000000000000000001 0
b11100001 Z
b0001 [
b111100001 \
#110000
b10001101 #
b10101111 $
b00000000000000000000000010001101 )
b00000000000000000000000010101111 *
b00000000000000000000000100111100 +
b00000000000000000000000000110111 S
b00111100 Z
b0011 [
b100111100 \
#111000
b10001001 #
b00010000 $
b00000000000000000000000010001001 ,
b00000000000000000000000000010000 -
b00000000000000000000000010011001 .
b00000000000000000000000000000001 /
b00000000000000000000000000000000 0
b10011001 Z
b0010 [
b010011001 \
#112000
b11001010 #
b11000110 $
b00000000000000000000000011001010 )
b00000000000000000000000011000110 *
b00000000000000000000000110010000 +
b00000000000000000000000000111000 S
b10010000 Z
b0001 [
b110010000 \
#113000
b10101011 #
b01111000 $
b00000000000000000000000010101011 ,
b00000000000000000000000001111000 -
b00000000000000000000000100100011 .
b00000000000000000000000000000000 /
b00000000000000000000000000000001 0
b00100011 Z
b100100011 \
#114000
b01001100 #
b11110111 $
b00000000000000000000000001001100 )
b00000000000000000000000011110111 *
b00000000000000000000000101000011 +
b00000000000000000000000000111001 S
b01000011 Z
b101000011 \
