sim/tb_cpu.vcd
$version Generated by VerilatedVcd $end
$timescale 1ps $end
 $scope module TOP $end
  $scope module tb_cpu $end
   $var wire 1 ~ clk $end
   $var wire 1 !! rst $end
   $var wire 1 Y wr $end
   $var wire 8 "! data_in [7:0] $end
   $var wire 8 B data_out [7:0] $end
   $var wire 16 C address_out [15:0] $end
   $var wire 4 '! flags_in [3:0] $end
   $var wire 4 (! flags_out [3:0] $end
   $var wire 32 )! CLK_PERIOD [31:0] $end
   $var real 64 *! DUTY_CYCLE $end
   $scope module dut $end
    $var wire 1 ~ clk $end
    $var wire 1 !! rst $end
    $var wire 1 Y cpu_wr $end
    $var wire 8 "! data_in [7:0] $end
    $var wire 8 B data_out [7:0] $end
    $var wire 16 C address_out [15:0] $end
    $var wire 4 '! flags_in [3:0] $end
    $var wire 4 (! flags_out [3:0] $end
    $var wire 16 C address_bus_buffer [15:0] $end
    $var wire 8 "! data_bus_in_buffer [7:0] $end
    $var wire 8 B data_bus_out_buffer [7:0] $end
    $var wire 3 D m_cycle [2:0] $end
    $var wire 3 Z next_m_cycle [2:0] $end
    $var wire 1 ,! imu $end
    $var wire 8 E instruction [7:0] $end
    $var wire 8 F ie [7:0] $end
    $var wire 8 G accumulator [7:0] $end
    $var wire 4 H flags_reg [3:0] $end
    $var wire 16 I pc [15:0] $end
    $var wire 16 J sp [15:0] $end
    $var wire 1 #! m_clk $end
    $var wire 8 [ next_acc [7:0] $end
    $var wire 4 v next_flags_reg [3:0] $end
    $var wire 1 \ next_imu $end
    $var wire 1 ] fetch_en $end
    $var wire 1 ^ stop $end
    $var wire 1 _ halt $end
    $var wire 1 ` wake $end
    $var wire 1 Y cpu_wr_en_buf $end
    $var wire 8 K imm_z_reg [7:0] $end
    $var wire 8 L imm_w_reg [7:0] $end
    $var wire 1 a z_wr_en $end
    $var wire 1 b w_wr_en $end
    $var wire 2 c adr_bus_src [1:0] $end
    $var wire 1 -! cb_instr $end
    $var wire 2 d alu_res_dst [1:0] $end
    $var wire 3 e alu_a_src [2:0] $end
    $var wire 3 f alu_b_src [2:0] $end
    $var wire 5 g alu_op [4:0] $end
    $var wire 8 w alu_res [7:0] $end
    $var wire 8 x alu_a [7:0] $end
    $var wire 8 y alu_b [7:0] $end
    $var wire 8 w alu_res_buffer [7:0] $end
    $var wire 16 ( idu_res_buffer [15:0] $end
    $var wire 1 h reg_we_buffer $end
    $var wire 16 $! idu_in [15:0] $end
    $var wire 16 ( idu_out [15:0] $end
    $var wire 1 M reg_we $end
    $var wire 3 i reg_wa [2:0] $end
    $var wire 8 N reg_wd [7:0] $end
    $var wire 8 z reg_rd [7:0] $end
    $var wire 3 j reg_rd_adr [2:0] $end
    $var wire 1 k reg_wea $end
    $var wire 16 O reg_wda [15:0] $end
    $var wire 2 l reg_waa [1:0] $end
    $var wire 16 { reg_rda [15:0] $end
    $var wire 2 m reg_rda_adr [1:0] $end
    $var wire 1 n reg_wda_src $end
    $var wire 2 o idu_mode [1:0] $end
    $var wire 1 p d_bus_src $end
    $var wire 1 .! jmp_dst $end
    $var wire 1 q pc_jp $end
    $var wire 2 r d_bus_dst [1:0] $end
    $var wire 2 s idu_src [1:0] $end
    $var wire 2 t idu_dst [1:0] $end
    $var wire 1 -! next_cb_instr $end
    $var wire 2 P t_cycle [1:0] $end
    $var wire 2 Q next_t_cycle [1:0] $end
    $scope module alu0 $end
     $var wire 8 x alu_a [7:0] $end
     $var wire 8 y alu_b [7:0] $end
     $var wire 8 w alu_res [7:0] $end
     $var wire 4 H alu_flags_in [3:0] $end
     $var wire 4 v alu_flags_out [3:0] $end
     $var wire 5 g alu_op [4:0] $end
     $var wire 9 | alu_res_buffer [8:0] $end
     $var wire 8 } varZ [7:0] $end
    $upscope $end
    $scope module idu0 $end
     $var wire 1 !! rst $end
     $var wire 16 $! data_in [15:0] $end
     $var wire 2 o mode [1:0] $end
     $var wire 16 ( data_out [15:0] $end
    $upscope $end
    $scope module registers $end
     $var wire 1 ~ clk $end
     $var wire 1 !! rst $end
     $var wire 8 N wd [7:0] $end
     $var wire 1 M we $end
     $var wire 3 i wa [2:0] $end
     $var wire 8 z rd [7:0] $end
     $var wire 3 j rd_adr [2:0] $end
     $var wire 1 k wea $end
     $var wire 16 O wda [15:0] $end
     $var wire 2 l waa [1:0] $end
     $var wire 16 { rda [15:0] $end
     $var wire 2 m rda_adr [1:0] $end
     $var wire 4 /! waa_cl [3:0] $end
     $var wire 8 R regs[0] [7:0] $end
     $var wire 8 S regs[1] [7:0] $end
     $var wire 8 T regs[2] [7:0] $end
     $var wire 8 U regs[3] [7:0] $end
     $var wire 8 V regs[4] [7:0] $end
     $var wire 8 W regs[5] [7:0] $end
     $var wire 32 X i [31:0] $end
    $upscope $end
    $scope module signal_controller $end
     $var wire 1 #! clk $end
     $var wire 1 !! rst $end
     $var wire 8 E instr [7:0] $end
     $var wire 3 D m_cycle [2:0] $end
     $var wire 8 G acc_in [7:0] $end
     $var wire 8 K imm_z_in [7:0] $end
     $var wire 4 H flags [3:0] $end
     $var wire 8 [ acc_out [7:0] $end
     $var wire 2 s idu_src [1:0] $end
     $var wire 3 e alu_a_src [2:0] $end
     $var wire 3 f alu_b_src [2:0] $end
     $var wire 5 g alu_op [4:0] $end
     $var wire 2 d alu_res_dst [1:0] $end
     $var wire 2 t idu_dst [1:0] $end
     $var wire 1 h reg_we $end
     $var wire 3 i reg_wa [2:0] $end
     $var wire 3 j reg_rd_adr [2:0] $end
     $var wire 1 k reg_wea $end
     $var wire 2 l reg_waa [1:0] $end
     $var wire 2 m reg_rda_adr [1:0] $end
     $var wire 2 o idu_mode [1:0] $end
     $var wire 1 a imm_z_en $end
     $var wire 1 b imm_w_en $end
     $var wire 1 ] fetch_en $end
     $var wire 2 c adr_bus [1:0] $end
     $var wire 1 p d_bus $end
     $var wire 2 r d_bus_dst [1:0] $end
     $var wire 1 \ ime_next $end
     $var wire 1 _ halt $end
     $var wire 1 ^ stop $end
     $var wire 1 ` wake $end
     $var wire 1 q pc_jp $end
     $var wire 3 Z next_m_cycle [2:0] $end
     $var wire 1 Y cpu_wr_en $end
     $var wire 1 .! jmp_dst $end
     $var wire 1 n reg_wda_src $end
     $var wire 2 ) cc [1:0] $end
     $var wire 1 * cc_met $end
     $var wire 1 u cb_instr_en $end
     $var wire 1 + next_cb_instr_en $end
     $var wire 1 , comb_fetch_en $end
     $var wire 8 # comb_acc_out [7:0] $end
     $var wire 2 - comb_alu_res_dst [1:0] $end
     $var wire 3 . comb_alu_a_src [2:0] $end
     $var wire 3 / comb_alu_b_src [2:0] $end
     $var wire 5 0 comb_alu_op [4:0] $end
     $var wire 1 1 comb_reg_we $end
     $var wire 3 2 comb_reg_wa [2:0] $end
     $var wire 3 3 comb_reg_rd_adr [2:0] $end
     $var wire 1 4 comb_reg_wea $end
     $var wire 2 5 comb_reg_waa [1:0] $end
     $var wire 2 6 comb_reg_rda_adr [1:0] $end
     $var wire 2 7 comb_idu_mode [1:0] $end
     $var wire 2 8 comb_idu_dst [1:0] $end
     $var wire 1 %! comb_call_en $end
     $var wire 1 $ comb_pc_jp $end
     $var wire 1 % comb_ime_next $end
     $var wire 1 & comb_halt $end
     $var wire 1 ' comb_stop $end
     $var wire 1 9 comb_imm_z_en $end
     $var wire 1 : comb_imm_w_en $end
     $var wire 3 ; comb_next_m_cycle [2:0] $end
     $var wire 2 < comb_adr_bus_src [1:0] $end
     $var wire 1 = comb_d_bus $end
     $var wire 1 > comb_cpu_wr_en $end
     $var wire 1 0! comb_jmp_dst $end
     $var wire 1 1! comb_wake $end
     $var wire 1 ? comb_reg_wda_src $end
     $var wire 2 @ comb_d_bus_dst [1:0] $end
     $var wire 2 A comb_idu_src [1:0] $end
    $upscope $end
   $upscope $end
   $scope module mem $end
    $var wire 1 !! rst $end
    $var wire 1 ~ clk $end
    $var wire 16 C adr [15:0] $end
    $var wire 8 "! data_out [7:0] $end
    $var wire 1 Y wr_en $end
    $var wire 8 B data_in [7:0] $end
    $scope module unnamedblk1 $end
     $var wire 32 &! i [31:0] $end
    $upscope $end
   $upscope $end
  $upscope $end
 $upscope $end
$enddefinitions $end


#0
b00000000 #
0$
0%
0&
0'
b0000000000000000 (
b00 )
0*
0+
1,
b00 -
b000 .
b000 /
b00000 0
01
b000 2
b000 3
04
b00 5
b00 6
b00 7
b00 8
09
0:
b000 ;
b00 <
0=
0>
0?
b00 @
b00 A
b00000000 B
b0000000000000000 C
b000 D
b00000000 E
b00000000 F
b00000000 G
b0000 H
b0000000000000000 I
b0000000000000000 J
b00000000 K
b00000000 L
0M
b00000000 N
b0000000000000000 O
b00 P
b01 Q
b00000000 R
b00000000 S
b00000000 T
b00000000 U
b00000000 V
b00000000 W
b00000000000000000000000000000000 X
0Y
b000 Z
b00000000 [
0\
0]
0^
0_
0`
0a
0b
b00 c
b00 d
b000 e
b000 f
b00000 g
0h
b000 i
b000 j
0k
b00 l
b00 m
0n
b00 o
0p
0q
b00 r
b00 s
b00 t
0u
b0000 v
b00000000 w
b00000000 x
b00000000 y
b00000000 z
b0000000000000000 {
b000000000 |
b00000000 }
0~
1!!
b00000000 "!
1#!
b0000000000000000 $!
0%!
b00000000000000000111111111111111 &!
b0000 '!
b0000 (!
b00000000000000000000000000000101 )!
r0.5 *!
0,!
0-!
0.!
b0000 /!
00!
01!
#2500
b00000000000000000000000000001011 X
1~
#3000
b01 7
0!!
b11000110 "!
#5000
0~
#7500
b01 P
b10 Q
1~
#10000
0~
#12500
b10 P
b11 Q
1~
0#!
#15000
0~
#17500
b11 P
b00 Q
1~
#20000
0~
#22500
b0000000000000001 (
b00 P
b01 Q
1]
b01 o
1~
1#!
#25000
0~
#27500
b01 P
b10 Q
1~
#30000
0~
#32500
b10 P
b11 Q
1~
0#!
#35000
0~
#37500
0,
19
b001 ;
b11000110 E
b0000000000000001 I
b11 P
b00 Q
1~
#40000
0~
#42500
b00 P
b01 Q
b001 Z
0]
1a
1~
1#!
#45000
0~
#47500
b0000000000000010 (
b0000000000000001 C
b01 P
b10 Q
1~
b10100001 "!
b0000000000000001 $!
#50000
0~
#52500
b10 P
b11 Q
1~
0#!
#55000
0~
#57500
b0000000000000010 I
b10100001 K
b11 P
b00 Q
1~
#60000
0~
#62500
1,
b01 -
b100 .
b010 /
b00001 0
09
b000 ;
b001 D
b00 P
b01 Q
b000 Z
1]
0a
b01 d
b100 e
b010 f
b00001 g
b10100001 w
b10100001 y
b010100001 |
1~
1#!
#65000
0~
#67500
b0000000000000011 (
b0000000000000010 C
b01 P
b10 Q
1~
b11010110 "!
b0000000000000010 $!
#70000
0~
#72500
b10100001 G
b10 P
b11 Q
b0001 v
b01000010 w
b10100001 x
b101000010 |
1~
0#!
#75000
0~
#77500
b00011 0
b11010110 E
b0000000000000011 I
b11 P
b00 Q
1~
#80000
0~
#82500
0,
b00 -
19
b001 ;
b000 D
b00 P
b01 Q
b001 Z
0]
1a
b00 d
b00011 g
b1100 v
b00000000 w
b000000000 |
1~
1#!
#85000
0~
#87500
b0000000000000100 (
b0000000000000011 C
b01 P
b10 Q
1~
b00000001 "!
b0000000000000011 $!
#90000
0~
#92500
b1100 H
b10 P
b11 Q
1~
0#!
#95000
0~
#97500
b0000000000000100 I
b00000001 K
b11 P
b00 Q
b0100 v
b10100000 w
b00000001 y
b010100000 |
1~
#100000
0~
#102500
1,
b01 -
09
b000 ;
b001 D
b00 P
b01 Q
b000 Z
1]
0a
b01 d
1~
1#!
#105000
0~
#107500
b0000000000000101 (
b0000000000000100 C
b01 P
b10 Q
1~
b00000100 "!
b0000000000000100 $!
#110000
0~
#112500
b10100000 G
b0100 H
b10 P
b11 Q
b0110 v
b10011111 w
b10100000 x
b010011111 |
1~
0#!
#115000
0~
#117500
b00000100 E
b0000000000000101 I
b11 P
b00 Q
1~
#120000
0~
#122500
b10 -
b000 .
b001 /
b00001 0
11
b000 D
b00 P
b01 Q
b10 d
b000 e
b001 f
b00001 g
1h
b0000 v
b00000001 w
b00000000 x
b000000001 |
1~
1#!
#125000
0~
#127500
b0000000000000110 (
b0000000000000101 C
b01 P
b10 Q
1~
b0000000000000101 $!
#130000
0~
#132500
b0000 H
1M
b00000001 N
b10 P
b11 Q
1~
0#!
#135000
0~
#137500
b0000000000000110 I
0M
b11 P
b00 Q
b00000001 R
b00000010 w
b00000001 x
b00000001 z
b0000000100000000 {
b000000010 |
1~
#140000
0~
#142500
b00 P
b01 Q
1~
1#!
#145000
0~
#147500
b0000000000000111 (
b0000000000000110 C
b01 P
b10 Q
1~
b10000000 "!
b0000000000000110 $!
#150000
0~
#152500
1M
b00000010 N
b10 P
b11 Q
1~
0#!
#155000
0~
#157500
b01 -
b100 .
b000 /
01
b10000000 E
b0000000000000111 I
0M
b11 P
b00 Q
b00000010 R
b00000011 w
b00000010 x
b00000010 z
b0000001000000000 {
b000000011 |
1~
#160000
0~
#162500
b00 P
b01 Q
b01 d
b100 e
b000 f
0h
b10100010 w
b10100000 x
b00000010 y
b010100010 |
1~
1#!
#165000
0~
#167500
b0000000000001000 (
b0000000000000111 C
b01 P
b10 Q
1~
b00001110 "!
b0000000000000111 $!
#170000
0~
#172500
b10100010 G
b10 P
b11 Q
b10100100 w
b10100010 x
b010100100 |
1~
0#!
#175000
0~
#177500
0,
b00 -
19
b001 ;
b00001110 E
b0000000000001000 I
b11 P
b00 Q
1~
#180000
0~
#182500
b00 P
b01 Q
b001 Z
0]
1a
b00 d
1~
1#!
#185000
0~
#187500
b0000000000001001 (
b0000000000001000 C
b01 P
b10 Q
1~
b11101010 "!
b0000000000001000 $!
#190000
0~
#192500
b10 P
b11 Q
1~
0#!
#195000
0~
#197500
b0000000000001001 I
b11101010 K
b11 P
b00 Q
1~
#200000
0~
#202500
1,
b10 -
b010 .
b00000 0
11
b001 2
09
b000 ;
b001 D
b00 P
b01 Q
b000 Z
1]
0a
b10 d
b010 e
b00000 g
1h
b001 i
b11101010 w
b11101010 x
b000000000 |
1~
1#!
#205000
0~
#207500
b0000000000001010 (
b0000000000001001 C
b01 P
b10 Q
1~
b00000111 "!
b0000000000001001 $!
#210000
0~
#212500
1M
b11101010 N
b10 P
b11 Q
1~
0#!
#215000
0~
#217500
b00000111 E
b0000000000001010 I
0M
b11 P
b00 Q
b11101010 S
b0000001011101010 {
1~
#220000
0~
#222500
b01 -
b100 .
b01001 0
01
b000 D
b00 P
b01 Q
b01 d
b100 e
b01001 g
0h
b0001 v
b01000101 w
b10100010 x
1~
1#!
#225000
0~
#227500
b0000000000001011 (
b0000000000001010 C
b01 P
b10 Q
1~
b00010001 "!
b0000000000001010 $!
#230000
0~
#232500
b01000101 G
b0001 H
b10 P
b11 Q
b0000 v
b10001010 w
b01000101 x
1~
0#!
#235000
0~
#237500
0,
b00 -
19
b001 ;
b00010001 E
b0000000000001011 I
b11 P
b00 Q
1~
#240000
0~
#242500
b00 P
b01 Q
b001 Z
0]
1a
b00 d
1~
1#!
#245000
0~
#247500
b0000000000001100 (
b0000000000001011 C
b01 P
b10 Q
1~
b11011010 "!
b0000000000001011 $!
#250000
0~
#252500
b0000 H
b10 P
b11 Q
1~
0#!
#255000
0~
#257500
b0000000000001100 I
b11011010 K
b11 P
b00 Q
1~
#260000
0~
#262500
09
1:
b010 ;
b001 D
b00 P
b01 Q
b010 Z
0a
1b
1~
1#!
#265000
0~
#267500
b0000000000001101 (
b0000000000001100 C
b01 P
b10 Q
1~
b0000000000001100 $!
#270000
0~
#272500
b10 P
b11 Q
1~
0#!
#275000
0~
#277500
b0000000000001101 I
b11011010 L
b11 P
b00 Q
1~
#280000
0~
#282500
1,
14
b01 5
0:
b000 ;
b010 D
b00 P
b01 Q
b000 Z
1]
0b
1k
b01 l
1~
1#!
#285000
0~
#287500
b0000000000001110 (
b0000000000001101 C
b01 P
b10 Q
1~
b11111010 "!
b0000000000001101 $!
#290000
0~
#292500
b1101101011011010 O
b10 P
b11 Q
1~
0#!
#295000
0~
#297500
b10 8
19
b011 ;
b10 <
b11111010 E
b0000000000001110 I
b11 P
b00 Q
b11011010 T
b11011010 U
1~
#300000
0~
#302500
0,
04
b00 8
b001 ;
b00 <
b000 D
b00 P
b01 Q
b001 Z
0]
1a
0k
1~
1#!
#305000
0~
#307500
b0000000000001111 (
b0000000000001110 C
b01 P
b10 Q
1~
b11011101 "!
b0000000000001110 $!
#310000
0~
#312500
b10 P
b11 Q
1~
0#!
#315000
0~
#317500
b0000000000001111 I
b11011101 K
b11 P
b00 Q
1~
#320000
0~
#322500
09
1:
b010 ;
b001 D
b00 P
b01 Q
b010 Z
0a
1b
1~
1#!
#325000
0~
#327500
b0000000000010000 (
b0000000000001111 C
b01 P
b10 Q
1~
b0000000000001111 $!
#330000
0~
#332500
b10 P
b11 Q
1~
0#!
#335000
0~
#337500
b0000000000010000 I
b11011101 L
b11 P
b00 Q
1~
#340000
0~
#342500
b10 8
19
0:
b011 ;
b10 <
b010 D
b00 P
b01 Q
b011 Z
1a
0b
b10 c
b10 t
1~
1#!
#345000
0~
#347500
b1101110111011110 (
b1101110111011101 C
b01 P
b10 Q
1~
b10101010 "!
b1101110111011101 $!
#350000
0~
#352500
b10 P
b11 Q
1~
0#!
#355000
0~
#357500
b10101010 K
b11 P
b00 Q
1~
#360000
0~
#362500
1,
b01 -
b010 .
b00000 0
b00 8
09
b000 ;
b00 <
b011 D
b00 P
b01 Q
b000 Z
1]
0a
b00 c
b01 d
b010 e
b00000 g
b00 t
b10101010 w
b10101010 x
1~
1#!
#365000
0~
#367500
b0000000000010001 (
b0000000000010000 C
b01 P
b10 Q
1~
b10000001 "!
b0000000000010000 $!
#370000
0~
#372500
b10101010 G
b10 P
b11 Q
1~
0#!
#375000
0~
#377500
b10000001 E
b0000000000010001 I
b11 P
b00 Q
1~
#380000
0~
#382500
b100 .
b00001 0
b001 3
b000 D
b00 P
b01 Q
b100 e
b00001 g
b001 j
b0001 v
b10010100 w
b11101010 y
b11101010 z
b110010100 |
1~
1#!
#385000
0~
#387500
b0000000000010010 (
b0000000000010001 C
b01 P
b10 Q
1~
b11101010 "!
b0000000000010001 $!
#390000
0~
#392500
b10010100 G
b0001 H
b10 P
b11 Q
b0011 v
b01111110 w
b10010100 x
b101111110 |
1~
0#!
#395000
0~
#397500
0,
b00 -
19
b001 ;
b11101010 E
b0000000000010010 I
b11 P
b00 Q
1~
#400000
0~
#402500
b00 P
b01 Q
b001 Z
0]
1a
b00 d
1~
1#!
#405000
0~
#407500
b0000000000010011 (
b0000000000010010 C
b01 P
b10 Q
1~
b11101110 "!
b0000000000010010 $!
#410000
0~
#412500
b0011 H
b10 P
b11 Q
1~
0#!
#415000
0~
#417500
b0000000000010011 I
b11101110 K
b11 P
b00 Q
1~
#420000
0~
#422500
09
1:
b010 ;
b001 D
b00 P
b01 Q
b010 Z
0a
1b
1~
1#!
#425000
0~
#427500
b0000000000010100 (
b0000000000010011 C
b01 P
b10 Q
1~
b0000000000010011 $!
#430000
0~
#432500
b10 P
b11 Q
1~
0#!
#435000
0~
#437500
b0000000000010100 I
b11101110 L
b11 P
b00 Q
1~
#440000
0~
#442500
b10 8
0:
b011 ;
b10 <
1=
1>
b010 D
b00 P
b01 Q
1Y
b011 Z
0b
b10 c
1p
b10 t
1~
1#!
#445000
0~
#447500
b1110111011101111 (
b1110111011101110 C
b01 P
b10 Q
1~
b00000000 "!
b1110111011101110 $!
#450000
0~
#452500
b10 P
b11 Q
1~
0#!
#455000
0~
#457500
b10010100 B
b11 P
b00 Q
1~
#460000
0~
#462500
1,
b00 8
b000 ;
b00 <
0>
b011 D
b00 P
b01 Q
0Y
b000 Z
1]
b00 c
b00 t
1~
b10010100 "!
1#!
#465000
0~
#467500
b0000000000010101 (
b0000000000010100 C
b01 P
b10 Q
1~
b11010110 "!
b0000000000010100 $!
#470000
0~
#472500
b10 P
b11 Q
1~
0#!
#475000
0~
#477500
b11010110 E
b0000000000010101 I
b11 P
b00 Q
1~
#480000
0~
#482500
0,
19
b001 ;
b000 D
b00 P
b01 Q
b001 Z
0]
1a
1~
1#!
#485000
0~
#487500
b0000000000010110 (
b0000000000010101 C
b01 P
b10 Q
1~
b10010100 "!
b0000000000010101 $!
#490000
0~
#492500
b10 P
b11 Q
1~
0#!
#495000
0~
#497500
b0000000000010110 I
b10010100 K
b11 P
b00 Q
1~
#500000
0~
#502500
1,
b01 -
b010 /
b00011 0
09
b000 ;
b001 D
b00 P
b01 Q
b000 Z
1]
0a
b01 d
b010 f
b00011 g
b1100 v
b00000000 w
b10010100 y
b000000000 |
1~
1#!
#505000
0~
#507500
b0000000000010111 (
b0000000000010110 C
b01 P
b10 Q
1~
b11111010 "!
b0000000000010110 $!
#510000
0~
#512500
b00000000 G
b1100 H
b10 P
b11 Q
b0111 v
b01101100 w
b00000000 x
b101101100 |
1~
0#!
#515000
0~
#517500
1:
b010 ;
b11111010 E
b0000000000010111 I
b11 P
b00 Q
1~
#520000
0~
#522500
0,
b00 -
19
b001 ;
b000 D
b00 P
b01 Q
b001 Z
0]
1a
1b
b00 d
1~
1#!
#525000
0~
#527500
b0000000000011000 (
b0000000000010111 C
b01 P
b10 Q
1~
b11101110 "!
b0000000000010111 $!
#530000
0~
#532500
b0111 H
b10 P
b11 Q
1~
0#!
#535000
0~
#537500
b0000000000011000 I
b11101110 K
b11 P
b00 Q
b00010010 w
b11101110 y
b100010010 |
1~
#540000
0~
#542500
09
b010 ;
b001 D
b00 P
b01 Q
b010 Z
0a
1~
1#!
#545000
0~
#547500
b0000000000011001 (
b0000000000011000 C
b01 P
b10 Q
1~
b0000000000011000 $!
#550000
0~
#552500
b10 P
b11 Q
1~
0#!
#555000
0~
#557500
b0000000000011001 I
b11 P
b00 Q
1~
#560000
0~
#562500
b10 8
19
0:
b011 ;
b10 <
b010 D
b00 P
b01 Q
b011 Z
1a
0b
b10 c
b10 t
1~
1#!
#565000
0~
#567500
b1110111011101111 (
b1110111011101110 C
b01 P
b10 Q
1~
b10010100 "!
b1110111011101110 $!
#570000
0~
#572500
b10 P
b11 Q
1~
0#!
#575000
0~
#577500
b10010100 K
b11 P
b00 Q
b01101100 w
b10010100 y
b101101100 |
1~
#580000
0~
#582500
1,
b01 -
b010 .
b00000 0
b00 8
09
b000 ;
b00 <
b011 D
b00 P
b01 Q
b000 Z
1]
0a
b00 c
b01 d
b010 e
b00000 g
b00 t
b10010100 w
b10010100 x
b000000000 |
1~
1#!
#585000
0~
#587500
b0000000000011010 (
b0000000000011001 C
b01 P
b10 Q
1~
b11001011 "!
b0000000000011001 $!
#590000
0~
#592500
b10010100 G
b10 P
b11 Q
1~
0#!
#595000
0~
#597500
1+
b11001011 E
b0000000000011010 I
b11 P
b00 Q
1~
#600000
0~
#602500
b000 D
b00 P
b01 Q
1u
1~
1#!
#605000
0~
#607500
b0000000000011011 (
b0000000000011010 C
b01 P
b10 Q
1~
b11000011 "!
b0000000000011010 $!
#610000
0~
#612500
b10 P
b11 Q
1~
0#!
#615000
0~
#617500
0+
b10 -
b000 .
b011 /
b10011 0
11
b011 2
b011 3
b11000011 E
b0000000000011011 I
b11 P
b00 Q
1~
#620000
0~
#622500
b00 P
b01 Q
b10 d
b000 e
b011 f
b10011 g
1h
b011 i
b011 j
0u
b11011011 w
b11011010 x
b11000011 y
b11011010 z
b11011011 }
1~
1#!
#625000
0~
#627500
b0000000000011100 (
b0000000000011011 C
b01 P
b10 Q
1~
b11001011 "!
b0000000000011011 $!
#630000
0~
#632500
1M
b11011011 N
b10 P
b11 Q
1~
0#!
#635000
0~
#637500
1+
b11001011 E
b0000000000011100 I
0M
b11 P
b00 Q
b11011011 U
b11011011 x
b11001011 y
b11011011 z
1~
#640000
0~
#642500
b00 P
b01 Q
1u
1~
1#!
#645000
0~
#647500
b0000000000011101 (
b0000000000011100 C
b01 P
b10 Q
1~
b10000011 "!
b0000000000011100 $!
#650000
0~
#652500
1M
b10 P
b11 Q
1~
0#!
#655000
0~
#657500
0+
b10010 0
b10000011 E
b0000000000011101 I
0M
b11 P
b00 Q
b10000011 y
1~
#660000
0~
#662500
b01 -
b100 .
b000 /
b00001 0
01
b00 P
b01 Q
b10010 g
0u
b11011010 w
b11011010 }
1~
1#!
#665000
0~
#667500
b0000000000011110 (
b0000000000011101 C
b01 P
b10 Q
1~
b00100000 "!
b0000000000011101 $!
#670000
0~
#672500
1M
b11011010 N
b10 P
b11 Q
1~
0#!
#675000
0~
#677500
1*
0,
b11 -
b010 .
b111 /
19
b001 ;
b00100000 E
b0000000000011110 I
0M
b11 P
b00 Q
b11011010 U
b11001010 w
b11011010 x
b00100000 y
b11011010 z
b11001010 }
1~
#680000
0~
#682500
b00 P
b01 Q
b001 Z
0]
1a
b11 d
b010 e
b111 f
b00001 g
0h
b0000 v
b10110010 w
b10010100 x
b00011110 y
b010110010 |
b00000000 }
1~
1#!
#685000
0~
#687500
b0000000000011111 (
b0000000000011110 C
b01 P
b10 Q
1~
b00000101 "!
b0000000000011110 $!
#690000
0~
#692500
b0000 H
b10110010 K
b10 P
b11 Q
b11010000 w
b10110010 x
b011010000 |
1~
0#!
#695000
0~
#697500
b0000000000011111 I
b00000101 K
b11 P
b00 Q
b00100100 w
b00000101 x
b00011111 y
b000100100 |
1~
#700000
0~
#702500
b0000000000000000 (
b00 7
b11 8
09
b010 ;
b10 <
b01 A
b001 D
b00 P
b01 Q
b010 Z
0a
b10 c
b00 o
b01 s
b11 t
1~
1#!
b0000000000000000 $!
#705000
0~
#707500
b1110111000000101 C
b01 P
b10 Q
1~
b00000000 "!
#710000
0~
#712500
b00100100 K
b10 P
b11 Q
b01000011 w
b00100100 x
b001000011 |
1~
0#!
#715000
0~
#717500
b1110111000100100 C
b00000000 L
b11 P
b00 Q
1~
#720000
0~
#722500
b1110111000100101 (
0*
1,
b00 -
b01 7
b00 8
b000 ;
b00 <
b00 A
b010 D
b00 P
b01 Q
b000 Z
1]
b00 c
b00 d
b01 o
b00 s
b00 t
1~
1#!
b1110111000100100 $!
#725000
0~
#727500
b0000000000100000 (
b0000000000011111 C
b01 P
b10 Q
1~
b11000110 "!
b0000000000011111 $!
#730000
0~
#732500
b10 P
b11 Q
1~
0#!
#735000
0~
#737500
b11000110 E
b0000000000100000 I
b11 P
b00 Q
b01000100 w
b00100000 y
b001000100 |
1~
#740000
0~
#742500
0,
19
b001 ;
b000 D
b00 P
b01 Q
b001 Z
0]
1a
1~
1#!
#745000
0~
#747500
b0000000000100001 (
b0000000000100000 C
b01 P
b10 Q
1~
b00000101 "!
b0000000000100000 $!
#750000
0~
#752500
b10 P
b11 Q
1~
0#!
#755000
0~
#757500
b0000000000100001 I
b00000101 K
b11 P
b00 Q
b00100110 w
b00000101 x
b00100001 y
b000100110 |
1~
#760000
0~
#762500
1,
b01 -
b100 .
b010 /
09
b000 ;
b001 D
b00 P
b01 Q
b000 Z
1]
0a
b01 d
b100 e
b010 f
b0010 v
b10011001 w
b10010100 x
b00000101 y
b010011001 |
1~
1#!
#765000
0~
#767500
b0000000000100010 (
b0000000000100001 C
b01 P
b10 Q
1~
b00000000 "!
b0000000000100001 $!
#770000
0~
#772500
b10011001 G
b0010 H
b10 P
b11 Q
b10011110 w
b10011001 x
b010011110 |
1~
0#!
#775000
0~
#777500
b00 -
b00000000 E
b0000000000100010 I
b11 P
b00 Q
1~
#780000
0~
#782500
b000 D
b00 P
b01 Q
b00 d
1~
1#!
#785000
0~
#787500
b0000000000100011 (
b0000000000100010 C
b01 P
b10 Q
1~
b0000000000100010 $!
#790000
0~
#792500
b10 P
b11 Q
1~
0#!
#795000
0~
#797500
b0000000000100011 I
b11 P
b00 Q
1~
#800000
0~
#802500
b00 P
b01 Q
1~
1#!
#805000
0~
#807500
b0000000000100100 (
b0000000000100011 C
b01 P
b10 Q
1~
b0000000000100011 $!
#810000
0~
#812500
b10 P
b11 Q
1~
0#!
#815000
0~
#817500
b0000000000100100 I
b11 P
b00 Q
1~
#820000
0~
#822500
b00 P
b01 Q
1~
1#!
#825000
0~
#827500
b0000000000100101 (
b0000000000100100 C
b01 P
b10 Q
1~
b11010110 "!
b0000000000100100 $!
#830000
0~
#832500
b10 P
b11 Q
1~
0#!
#835000
0~
#837500
0,
19
b001 ;
b11010110 E
b0000000000100101 I
b11 P
b00 Q
1~
#840000
0~
#842500
b00 P
b01 Q
b001 Z
0]
1a
1~
1#!
#845000
0~
#847500
b0000000000100110 (
b0000000000100101 C
b01 P
b10 Q
1~
b00000101 "!
b0000000000100101 $!
#850000
0~
#852500
b10 P
b11 Q
1~
0#!
#855000
0~
#857500
b0000000000100110 I
b11 P
b00 Q
1~
#860000
0~
#862500
1,
b01 -
b00011 0
09
b000 ;
b001 D
b00 P
b01 Q
b000 Z
1]
0a
b01 d
b00011 g
b0100 v
b10010100 w
b010010100 |
1~
1#!
#865000
0~
#867500
b0000000000100111 (
b0000000000100110 C
b01 P
b10 Q
1~
b00010010 "!
b0000000000100110 $!
#870000
0~
#872500
b10010100 G
b0100 H
b10 P
b11 Q
b0110 v
b10001111 w
b10010100 x
b010001111 |
1~
0#!
#875000
0~
#877500
b00010010 E
b0000000000100111 I
b11 P
b00 Q
1~
#880000
0~
#882500
0,
b00 -
b01 6
b10 8
b001 ;
b01 <
1>
b000 D
b00 P
b01 Q
1Y
b001 Z
0]
b01 c
b00 d
b01 m
b10 t
b1101101011011010 {
1~
1#!
#885000
0~
#887500
b1101101011011011 (
b1101101011011010 C
b01 P
b10 Q
1~
b00000000 "!
b1101101011011010 $!
#890000
0~
#892500
b0110 H
b10 P
b11 Q
1~
b10010100 "!
0#!
#895000
0~
#897500
b11 P
b00 Q
1~
#900000
0~
