sim/tb_cpu.vcd
$version Generated by VerilatedVcd $end
$timescale 1ps $end
 $scope module TOP $end
  $scope module tb_cpu $end
   $var wire 1 { clk $end
   $var wire 1 | rst $end
   $var wire 1 V wr $end
   $var wire 8 } data_in [7:0] $end
   $var wire 8 ? data_out [7:0] $end
   $var wire 16 @ address_out [15:0] $end
   $var wire 4 (! flags_in [3:0] $end
   $var wire 4 )! flags_out [3:0] $end
   $var wire 32 *! CLK_PERIOD [31:0] $end
   $var real 64 +! DUTY_CYCLE $end
   $scope module dut $end
    $var wire 1 { clk $end
    $var wire 1 | rst $end
    $var wire 1 V cpu_wr $end
    $var wire 8 } data_in [7:0] $end
    $var wire 8 ? data_out [7:0] $end
    $var wire 16 @ address_out [15:0] $end
    $var wire 4 (! flags_in [3:0] $end
    $var wire 4 )! flags_out [3:0] $end
    $var wire 16 @ address_bus_buffer [15:0] $end
    $var wire 8 } data_bus_in_buffer [7:0] $end
    $var wire 8 ? data_bus_out_buffer [7:0] $end
    $var wire 3 A m_cycle [2:0] $end
    $var wire 3 W next_m_cycle [2:0] $end
    $var wire 1 -! imu $end
    $var wire 8 B instruction [7:0] $end
    $var wire 8 C ie [7:0] $end
    $var wire 8 D accumulator [7:0] $end
    $var wire 4 E flags_reg [3:0] $end
    $var wire 16 F pc [15:0] $end
    $var wire 16 G sp [15:0] $end
    $var wire 1 ~ m_clk $end
    $var wire 8 X next_acc [7:0] $end
    $var wire 4 s next_flags_reg [3:0] $end
    $var wire 1 Y next_imu $end
    $var wire 1 Z fetch_en $end
    $var wire 1 [ stop $end
    $var wire 1 \ halt $end
    $var wire 1 ] wake $end
    $var wire 1 V cpu_wr_en_buf $end
    $var wire 8 H imm_z_reg [7:0] $end
    $var wire 8 I imm_w_reg [7:0] $end
    $var wire 1 ^ z_wr_en $end
    $var wire 1 _ w_wr_en $end
    $var wire 2 ` adr_bus_src [1:0] $end
    $var wire 1 .! cb_instr $end
    $var wire 2 a alu_res_dst [1:0] $end
    $var wire 3 b alu_a_src [2:0] $end
    $var wire 3 c alu_b_src [2:0] $end
    $var wire 5 d alu_op [4:0] $end
    $var wire 8 t alu_res [7:0] $end
    $var wire 8 u alu_a [7:0] $end
    $var wire 8 v alu_b [7:0] $end
    $var wire 8 t alu_res_buffer [7:0] $end
    $var wire 16 # idu_res_buffer [15:0] $end
    $var wire 1 e reg_we_buffer $end
    $var wire 16 !! idu_in [15:0] $end
    $var wire 16 # idu_out [15:0] $end
    $var wire 1 J reg_we $end
    $var wire 3 f reg_wa [2:0] $end
    $var wire 8 K reg_wd [7:0] $end
    $var wire 8 w reg_rd [7:0] $end
    $var wire 3 g reg_rd_adr [2:0] $end
    $var wire 1 h reg_wea $end
    $var wire 16 L reg_wda [15:0] $end
    $var wire 2 i reg_waa [1:0] $end
    $var wire 16 x reg_rda [15:0] $end
    $var wire 2 j reg_rda_adr [1:0] $end
    $var wire 1 k reg_wda_src $end
    $var wire 2 l idu_mode [1:0] $end
    $var wire 1 m d_bus_src $end
    $var wire 1 /! jmp_dst $end
    $var wire 1 n pc_jp $end
    $var wire 2 o d_bus_dst [1:0] $end
    $var wire 2 p idu_src [1:0] $end
    $var wire 2 q idu_dst [1:0] $end
    $var wire 1 .! next_cb_instr $end
    $var wire 2 M t_cycle [1:0] $end
    $var wire 2 N next_t_cycle [1:0] $end
    $scope module alu0 $end
     $var wire 8 u alu_a [7:0] $end
     $var wire 8 v alu_b [7:0] $end
     $var wire 8 t alu_res [7:0] $end
     $var wire 4 E alu_flags_in [3:0] $end
     $var wire 4 s alu_flags_out [3:0] $end
     $var wire 5 d alu_op [4:0] $end
     $var wire 9 y alu_res_buffer [8:0] $end
     $var wire 8 z varZ [7:0] $end
    $upscope $end
    $scope module idu0 $end
     $var wire 1 | rst $end
     $var wire 16 !! data_in [15:0] $end
     $var wire 2 l mode [1:0] $end
     $var wire 16 # data_out [15:0] $end
    $upscope $end
    $scope module registers $end
     $var wire 1 { clk $end
     $var wire 1 | rst $end
     $var wire 8 K wd [7:0] $end
     $var wire 1 J we $end
     $var wire 3 f wa [2:0] $end
     $var wire 8 w rd [7:0] $end
     $var wire 3 g rd_adr [2:0] $end
     $var wire 1 h wea $end
     $var wire 16 L wda [15:0] $end
     $var wire 2 i waa [1:0] $end
     $var wire 16 x rda [15:0] $end
     $var wire 2 j rda_adr [1:0] $end
     $var wire 4 0! waa_cl [3:0] $end
     $var wire 8 O regs[0] [7:0] $end
     $var wire 8 P regs[1] [7:0] $end
     $var wire 8 Q regs[2] [7:0] $end
     $var wire 8 R regs[3] [7:0] $end
     $var wire 8 S regs[4] [7:0] $end
     $var wire 8 T regs[5] [7:0] $end
     $var wire 32 U i [31:0] $end
    $upscope $end
    $scope module signal_controller $end
     $var wire 1 ~ clk $end
     $var wire 1 | rst $end
     $var wire 8 B instr [7:0] $end
     $var wire 3 A m_cycle [2:0] $end
     $var wire 8 D acc_in [7:0] $end
     $var wire 8 H imm_z_in [7:0] $end
     $var wire 4 E flags [3:0] $end
     $var wire 8 X acc_out [7:0] $end
     $var wire 2 p idu_src [1:0] $end
     $var wire 3 b alu_a_src [2:0] $end
     $var wire 3 c alu_b_src [2:0] $end
     $var wire 5 d alu_op [4:0] $end
     $var wire 2 a alu_res_dst [1:0] $end
     $var wire 2 q idu_dst [1:0] $end
     $var wire 1 e reg_we $end
     $var wire 3 f reg_wa [2:0] $end
     $var wire 3 g reg_rd_adr [2:0] $end
     $var wire 1 h reg_wea $end
     $var wire 2 i reg_waa [1:0] $end
     $var wire 2 j reg_rda_adr [1:0] $end
     $var wire 2 l idu_mode [1:0] $end
     $var wire 1 ^ imm_z_en $end
     $var wire 1 _ imm_w_en $end
     $var wire 1 Z fetch_en $end
     $var wire 2 ` adr_bus [1:0] $end
     $var wire 1 m d_bus $end
     $var wire 2 o d_bus_dst [1:0] $end
     $var wire 1 Y ime_next $end
     $var wire 1 \ halt $end
     $var wire 1 [ stop $end
     $var wire 1 ] wake $end
     $var wire 1 n pc_jp $end
     $var wire 3 W next_m_cycle [2:0] $end
     $var wire 1 V cpu_wr_en $end
     $var wire 1 /! jmp_dst $end
     $var wire 1 k reg_wda_src $end
     $var wire 2 $ cc [1:0] $end
     $var wire 1 % cc_met $end
     $var wire 1 r cb_instr_en $end
     $var wire 1 & next_cb_instr_en $end
     $var wire 1 ' comb_fetch_en $end
     $var wire 8 "! comb_acc_out [7:0] $end
     $var wire 2 ( comb_alu_res_dst [1:0] $end
     $var wire 3 ) comb_alu_a_src [2:0] $end
     $var wire 3 * comb_alu_b_src [2:0] $end
     $var wire 5 + comb_alu_op [4:0] $end
     $var wire 1 , comb_reg_we $end
     $var wire 3 - comb_reg_wa [2:0] $end
     $var wire 3 . comb_reg_rd_adr [2:0] $end
     $var wire 1 / comb_reg_wea $end
     $var wire 2 0 comb_reg_waa [1:0] $end
     $var wire 2 1 comb_reg_rda_adr [1:0] $end
     $var wire 2 2 comb_idu_mode [1:0] $end
     $var wire 2 3 comb_idu_dst [1:0] $end
     $var wire 1 #! comb_call_en $end
     $var wire 1 4 comb_pc_jp $end
     $var wire 1 $! comb_ime_next $end
     $var wire 1 %! comb_halt $end
     $var wire 1 &! comb_stop $end
     $var wire 1 5 comb_imm_z_en $end
     $var wire 1 6 comb_imm_w_en $end
     $var wire 3 7 comb_next_m_cycle [2:0] $end
     $var wire 2 8 comb_adr_bus_src [1:0] $end
     $var wire 1 9 comb_d_bus $end
     $var wire 1 : comb_cpu_wr_en $end
     $var wire 1 ; comb_jmp_dst $end
     $var wire 1 1! comb_wake $end
     $var wire 1 < comb_reg_wda_src $end
     $var wire 2 = comb_d_bus_dst [1:0] $end
     $var wire 2 > comb_idu_src [1:0] $end
    $upscope $end
   $upscope $end
   $scope module mem $end
    $var wire 1 | rst $end
    $var wire 1 { clk $end
    $var wire 16 @ adr [15:0] $end
    $var wire 8 } data_out [7:0] $end
    $var wire 1 V wr_en $end
    $var wire 8 ? data_in [7:0] $end
    $scope module unnamedblk1 $end
     $var wire 32 '! i [31:0] $end
    $upscope $end
   $upscope $end
  $upscope $end
 $upscope $end
$enddefinitions $end


#0
b0000000000000000 #
b00 $
0%
0&
1'
b00 (
b000 )
b000 *
b00000 +
0,
b000 -
b000 .
0/
b00 0
b00 1
b00 2
b00 3
04
05
06
b000 7
b00 8
09
0:
0;
0<
b00 =
b00 >
b00000000 ?
b0000000000000000 @
b000 A
b00000000 B
b00000000 C
b00000000 D
b0000 E
b0000000000000000 F
b0000000000000000 G
b00000000 H
b00000000 I
0J
b00000000 K
b0000000000000000 L
b00 M
b01 N
b00000000 O
b00000000 P
b00000000 Q
b00000000 R
b00000000 S
b00000000 T
b00000000000000000000000000000000 U
0V
b000 W
b00000000 X
0Y
0Z
0[
0\
0]
0^
0_
b00 `
b00 a
b000 b
b000 c
b00000 d
0e
b000 f
b000 g
0h
b00 i
b00 j
0k
b00 l
0m
0n
b00 o
b00 p
b00 q
0r
b0000 s
b00000000 t
b00000000 u
b00000000 v
b00000000 w
b0000000000000000 x
b000000000 y
b00000000 z
0{
1|
b00000000 }
1~
b0000000000000000 !!
b00000000 "!
0#!
0$!
0%!
0&!
b00000000000000000111111111111111 '!
b0000 (!
b0000 )!
b00000000000000000000000000000101 *!
r0.5 +!
0-!
0.!
0/!
b0000 0!
01!
#2500
b00000000000000000000000000001011 U
1{
#3000
b01 2
0|
b11000110 }
#5000
0{
#7500
b01 M
b10 N
1{
#10000
0{
#12500
b10 M
b11 N
1{
0~
#15000
0{
#17500
b11 M
b00 N
1{
#20000
0{
#22500
b0000000000000001 #
b00 M
b01 N
1Z
b01 l
1{
1~
#25000
0{
#27500
b01 M
b10 N
1{
#30000
0{
#32500
b10 M
b11 N
1{
0~
#35000
0{
#37500
0'
15
b001 7
b11000110 B
b0000000000000001 F
b11 M
b00 N
1{
#40000
0{
#42500
b00 M
b01 N
b001 W
0Z
1^
1{
1~
#45000
0{
#47500
b0000000000000010 #
b0000000000000001 @
b01 M
b10 N
1{
b10100001 }
b0000000000000001 !!
#50000
0{
#52500
b10 M
b11 N
1{
0~
#55000
0{
#57500
b0000000000000010 F
b10100001 H
b11 M
b00 N
1{
#60000
0{
#62500
1'
b01 (
b100 )
b010 *
b00001 +
05
b000 7
b001 A
b00 M
b01 N
b000 W
1Z
0^
b01 a
b100 b
b010 c
b00001 d
b10100001 t
b10100001 v
b010100001 y
1{
1~
#65000
0{
#67500
b0000000000000011 #
b0000000000000010 @
b01 M
b10 N
1{
b11010110 }
b0000000000000010 !!
#70000
0{
#72500
b10100001 D
b10 M
b11 N
b0001 s
b01000010 t
b10100001 u
b101000010 y
1{
0~
#75000
0{
#77500
b00011 +
b11010110 B
b0000000000000011 F
b11 M
b00 N
1{
#80000
0{
#82500
0'
b00 (
15
b001 7
b000 A
b00 M
b01 N
b001 W
0Z
1^
b00 a
b00011 d
b1100 s
b00000000 t
b000000000 y
1{
1~
#85000
0{
#87500
b0000000000000100 #
b0000000000000011 @
b01 M
b10 N
1{
b00000001 }
b0000000000000011 !!
#90000
0{
#92500
b1100 E
b10 M
b11 N
1{
0~
#95000
0{
#97500
b0000000000000100 F
b00000001 H
b11 M
b00 N
b0100 s
b10100000 t
b00000001 v
b010100000 y
1{
#100000
0{
#102500
1'
b01 (
05
b000 7
b001 A
b00 M
b01 N
b000 W
1Z
0^
b01 a
1{
1~
#105000
0{
#107500
b0000000000000101 #
b0000000000000100 @
b01 M
b10 N
1{
b00000100 }
b0000000000000100 !!
#110000
0{
#112500
b10100000 D
b0100 E
b10 M
b11 N
b0110 s
b10011111 t
b10100000 u
b010011111 y
1{
0~
#115000
0{
#117500
b00000100 B
b0000000000000101 F
b11 M
b00 N
1{
#120000
0{
#122500
b10 (
b000 )
b001 *
b00001 +
1,
b000 A
b00 M
b01 N
b10 a
b000 b
b001 c
b00001 d
1e
b0000 s
b00000001 t
b00000000 u
b000000001 y
1{
1~
#125000
0{
#127500
b0000000000000110 #
b0000000000000101 @
b01 M
b10 N
1{
b0000000000000101 !!
#130000
0{
#132500
b0000 E
1J
b00000001 K
b10 M
b11 N
1{
0~
#135000
0{
#137500
b0000000000000110 F
0J
b11 M
b00 N
b00000001 O
b00000010 t
b00000001 u
b00000001 w
b0000000100000000 x
b000000010 y
1{
#140000
0{
#142500
b00 M
b01 N
1{
1~
#145000
0{
#147500
b0000000000000111 #
b0000000000000110 @
b01 M
b10 N
1{
b10000000 }
b0000000000000110 !!
#150000
0{
#152500
1J
b00000010 K
b10 M
b11 N
1{
0~
#155000
0{
#157500
b01 (
b100 )
b000 *
0,
b10000000 B
b0000000000000111 F
0J
b11 M
b00 N
b00000010 O
b00000011 t
b00000010 u
b00000010 w
b0000001000000000 x
b000000011 y
1{
#160000
0{
#162500
b00 M
b01 N
b01 a
b100 b
b000 c
0e
b10100010 t
b10100000 u
b00000010 v
b010100010 y
1{
1~
#165000
0{
#167500
b0000000000001000 #
b0000000000000111 @
b01 M
b10 N
1{
b00001110 }
b0000000000000111 !!
#170000
0{
#172500
b10100010 D
b10 M
b11 N
b10100100 t
b10100010 u
b010100100 y
1{
0~
#175000
0{
#177500
0'
b00 (
15
b001 7
b00001110 B
b0000000000001000 F
b11 M
b00 N
1{
#180000
0{
#182500
b00 M
b01 N
b001 W
0Z
1^
b00 a
1{
1~
#185000
0{
#187500
b0000000000001001 #
b0000000000001000 @
b01 M
b10 N
1{
b11101010 }
b0000000000001000 !!
#190000
0{
#192500
b10 M
b11 N
1{
0~
#195000
0{
#197500
b0000000000001001 F
b11101010 H
b11 M
b00 N
1{
#200000
0{
#202500
1'
b10 (
b010 )
b00000 +
1,
b001 -
05
b000 7
b001 A
b00 M
b01 N
b000 W
1Z
0^
b10 a
b010 b
b00000 d
1e
b001 f
b11101010 t
b11101010 u
b000000000 y
1{
1~
#205000
0{
#207500
b0000000000001010 #
b0000000000001001 @
b01 M
b10 N
1{
b00000111 }
b0000000000001001 !!
#210000
0{
#212500
1J
b11101010 K
b10 M
b11 N
1{
0~
#215000
0{
#217500
b00000111 B
b0000000000001010 F
0J
b11 M
b00 N
b11101010 P
b0000001011101010 x
1{
#220000
0{
#222500
b01 (
b100 )
b01001 +
0,
b000 A
b00 M
b01 N
b01 a
b100 b
b01001 d
0e
b0001 s
b01000101 t
b10100010 u
1{
1~
#225000
0{
#227500
b0000000000001011 #
b0000000000001010 @
b01 M
b10 N
1{
b00010001 }
b0000000000001010 !!
#230000
0{
#232500
b01000101 D
b0001 E
b10 M
b11 N
b0000 s
b10001010 t
b01000101 u
1{
0~
#235000
0{
#237500
0'
b00 (
15
b001 7
b00010001 B
b0000000000001011 F
b11 M
b00 N
1{
#240000
0{
#242500
b00 M
b01 N
b001 W
0Z
1^
b00 a
1{
1~
#245000
0{
#247500
b0000000000001100 #
b0000000000001011 @
b01 M
b10 N
1{
b11011010 }
b0000000000001011 !!
#250000
0{
#252500
b0000 E
b10 M
b11 N
1{
0~
#255000
0{
#257500
b0000000000001100 F
b11011010 H
b11 M
b00 N
1{
#260000
0{
#262500
05
16
b010 7
b001 A
b00 M
b01 N
b010 W
0^
1_
1{
1~
#265000
0{
#267500
b0000000000001101 #
b0000000000001100 @
b01 M
b10 N
1{
b0000000000001100 !!
#270000
0{
#272500
b10 M
b11 N
1{
0~
#275000
0{
#277500
b0000000000001101 F
b11011010 I
b11 M
b00 N
1{
#280000
0{
#282500
1'
1/
b01 0
06
b000 7
b010 A
b00 M
b01 N
b000 W
1Z
0_
1h
b01 i
1{
1~
#285000
0{
#287500
b0000000000001110 #
b0000000000001101 @
b01 M
b10 N
1{
b11111010 }
b0000000000001101 !!
#290000
0{
#292500
b1101101011011010 L
b10 M
b11 N
1{
0~
#295000
0{
#297500
b10 3
15
b011 7
b10 8
b11111010 B
b0000000000001110 F
b11 M
b00 N
b11011010 Q
b11011010 R
1{
#300000
0{
#302500
0'
0/
b00 3
b001 7
b00 8
b000 A
b00 M
b01 N
b001 W
0Z
1^
0h
1{
1~
#305000
0{
#307500
b0000000000001111 #
b0000000000001110 @
b01 M
b10 N
1{
b11011101 }
b0000000000001110 !!
#310000
0{
#312500
b10 M
b11 N
1{
0~
#315000
0{
#317500
b0000000000001111 F
b11011101 H
b11 M
b00 N
1{
#320000
0{
#322500
05
16
b010 7
b001 A
b00 M
b01 N
b010 W
0^
1_
1{
1~
#325000
0{
#327500
b0000000000010000 #
b0000000000001111 @
b01 M
b10 N
1{
b0000000000001111 !!
#330000
0{
#332500
b10 M
b11 N
1{
0~
#335000
0{
#337500
b0000000000010000 F
b11011101 I
b11 M
b00 N
1{
#340000
0{
#342500
b10 3
15
06
b011 7
b10 8
b010 A
b00 M
b01 N
b011 W
1^
0_
b10 `
b10 q
1{
1~
#345000
0{
#347500
b1101110111011110 #
b1101110111011101 @
b01 M
b10 N
1{
b10101010 }
b1101110111011101 !!
#350000
0{
#352500
b10 M
b11 N
1{
0~
#355000
0{
#357500
b10101010 H
b11 M
b00 N
1{
#360000
0{
#362500
1'
b01 (
b010 )
b00000 +
b00 3
05
b000 7
b00 8
b011 A
b00 M
b01 N
b000 W
1Z
0^
b00 `
b01 a
b010 b
b00000 d
b00 q
b10101010 t
b10101010 u
1{
1~
#365000
0{
#367500
b0000000000010001 #
b0000000000010000 @
b01 M
b10 N
1{
b10000001 }
b0000000000010000 !!
#370000
0{
#372500
b10101010 D
b10 M
b11 N
1{
0~
#375000
0{
#377500
b10000001 B
b0000000000010001 F
b11 M
b00 N
1{
#380000
0{
#382500
b100 )
b00001 +
b001 .
b000 A
b00 M
b01 N
b100 b
b00001 d
b001 g
b0001 s
b10010100 t
b11101010 v
b11101010 w
b110010100 y
1{
1~
#385000
0{
#387500
b0000000000010010 #
b0000000000010001 @
b01 M
b10 N
1{
b11101010 }
b0000000000010001 !!
#390000
0{
#392500
b10010100 D
b0001 E
b10 M
b11 N
b0011 s
b01111110 t
b10010100 u
b101111110 y
1{
0~
#395000
0{
#397500
0'
b00 (
15
b001 7
b11101010 B
b0000000000010010 F
b11 M
b00 N
1{
#400000
0{
#402500
b00 M
b01 N
b001 W
0Z
1^
b00 a
1{
1~
#405000
0{
#407500
b0000000000010011 #
b0000000000010010 @
b01 M
b10 N
1{
b11101110 }
b0000000000010010 !!
#410000
0{
#412500
b0011 E
b10 M
b11 N
1{
0~
#415000
0{
#417500
b0000000000010011 F
b11101110 H
b11 M
b00 N
1{
#420000
0{
#422500
05
16
b010 7
b001 A
b00 M
b01 N
b010 W
0^
1_
1{
1~
#425000
0{
#427500
b0000000000010100 #
b0000000000010011 @
b01 M
b10 N
1{
b0000000000010011 !!
#430000
0{
#432500
b10 M
b11 N
1{
0~
#435000
0{
#437500
b0000000000010100 F
b11101110 I
b11 M
b00 N
1{
#440000
0{
#442500
b10 3
06
b011 7
b10 8
19
1:
b010 A
b00 M
b01 N
1V
b011 W
0_
b10 `
1m
b10 q
1{
1~
#445000
0{
#447500
b1110111011101111 #
b1110111011101110 @
b01 M
b10 N
1{
b00000000 }
b1110111011101110 !!
#450000
0{
#452500
b10 M
b11 N
1{
0~
#455000
0{
#457500
b10010100 ?
b11 M
b00 N
1{
#460000
0{
#462500
1'
b00 3
b000 7
b00 8
0:
b011 A
b00 M
b01 N
0V
b000 W
1Z
b00 `
b00 q
1{
b10010100 }
1~
#465000
0{
#467500
b0000000000010101 #
b0000000000010100 @
b01 M
b10 N
1{
b11010110 }
b0000000000010100 !!
#470000
0{
#472500
b10 M
b11 N
1{
0~
#475000
0{
#477500
b11010110 B
b0000000000010101 F
b11 M
b00 N
1{
#480000
0{
#482500
0'
15
b001 7
b000 A
b00 M
b01 N
b001 W
0Z
1^
1{
1~
#485000
0{
#487500
b0000000000010110 #
b0000000000010101 @
b01 M
b10 N
1{
b10010100 }
b0000000000010101 !!
#490000
0{
#492500
b10 M
b11 N
1{
0~
#495000
0{
#497500
b0000000000010110 F
b10010100 H
b11 M
b00 N
1{
#500000
0{
#502500
1'
b01 (
b010 *
b00011 +
05
b000 7
b001 A
b00 M
b01 N
b000 W
1Z
0^
b01 a
b010 c
b00011 d
b1100 s
b00000000 t
b10010100 v
b000000000 y
1{
1~
#505000
0{
#507500
b0000000000010111 #
b0000000000010110 @
b01 M
b10 N
1{
b11111010 }
b0000000000010110 !!
#510000
0{
#512500
b00000000 D
b1100 E
b10 M
b11 N
b0111 s
b01101100 t
b00000000 u
b101101100 y
1{
0~
#515000
0{
#517500
16
b010 7
b11111010 B
b0000000000010111 F
b11 M
b00 N
1{
#520000
0{
#522500
0'
b00 (
15
b001 7
b000 A
b00 M
b01 N
b001 W
0Z
1^
1_
b00 a
1{
1~
#525000
0{
#527500
b0000000000011000 #
b0000000000010111 @
b01 M
b10 N
1{
b11101110 }
b0000000000010111 !!
#530000
0{
#532500
b0111 E
b10 M
b11 N
1{
0~
#535000
0{
#537500
b0000000000011000 F
b11101110 H
b11 M
b00 N
b00010010 t
b11101110 v
b100010010 y
1{
#540000
0{
#542500
05
b010 7
b001 A
b00 M
b01 N
b010 W
0^
1{
1~
#545000
0{
#547500
b0000000000011001 #
b0000000000011000 @
b01 M
b10 N
1{
b0000000000011000 !!
#550000
0{
#552500
b10 M
b11 N
1{
0~
#555000
0{
#557500
b0000000000011001 F
b11 M
b00 N
1{
#560000
0{
#562500
b10 3
15
06
b011 7
b10 8
b010 A
b00 M
b01 N
b011 W
1^
0_
b10 `
b10 q
1{
1~
#565000
0{
#567500
b1110111011101111 #
b1110111011101110 @
b01 M
b10 N
1{
b10010100 }
b1110111011101110 !!
#570000
0{
#572500
b10 M
b11 N
1{
0~
#575000
0{
#577500
b10010100 H
b11 M
b00 N
b01101100 t
b10010100 v
b101101100 y
1{
#580000
0{
#582500
1'
b01 (
b010 )
b00000 +
b00 3
05
b000 7
b00 8
b011 A
b00 M
b01 N
b000 W
1Z
0^
b00 `
b01 a
b010 b
b00000 d
b00 q
b10010100 t
b10010100 u
b000000000 y
1{
1~
#585000
0{
#587500
b0000000000011010 #
b0000000000011001 @
b01 M
b10 N
1{
b11001011 }
b0000000000011001 !!
#590000
0{
#592500
b10010100 D
b10 M
b11 N
1{
0~
#595000
0{
#597500
1&
b11001011 B
b0000000000011010 F
b11 M
b00 N
1{
#600000
0{
#602500
b000 A
b00 M
b01 N
1r
1{
1~
#605000
0{
#607500
b0000000000011011 #
b0000000000011010 @
b01 M
b10 N
1{
b11000011 }
b0000000000011010 !!
#610000
0{
#612500
b10 M
b11 N
1{
0~
#615000
0{
#617500
0&
b10 (
b000 )
b011 *
b10011 +
1,
b011 -
b011 .
b11000011 B
b0000000000011011 F
b11 M
b00 N
1{
#620000
0{
#622500
b00 M
b01 N
b10 a
b000 b
b011 c
b10011 d
1e
b011 f
b011 g
0r
b11011011 t
b11011010 u
b11000011 v
b11011010 w
b11011011 z
1{
1~
#625000
0{
#627500
b0000000000011100 #
b0000000000011011 @
b01 M
b10 N
1{
b11001011 }
b0000000000011011 !!
#630000
0{
#632500
1J
b11011011 K
b10 M
b11 N
1{
0~
#635000
0{
#637500
1&
b11001011 B
b0000000000011100 F
0J
b11 M
b00 N
b11011011 R
b11011011 u
b11001011 v
b11011011 w
1{
#640000
0{
#642500
b00 M
b01 N
1r
1{
1~
#645000
0{
#647500
b0000000000011101 #
b0000000000011100 @
b01 M
b10 N
1{
b10000011 }
b0000000000011100 !!
#650000
0{
#652500
1J
b10 M
b11 N
1{
0~
#655000
0{
#657500
0&
b10010 +
b10000011 B
b0000000000011101 F
0J
b11 M
b00 N
b10000011 v
1{
#660000
0{
#662500
b01 (
b100 )
b000 *
b00001 +
0,
b00 M
b01 N
b10010 d
0r
b11011010 t
b11011010 z
1{
1~
#665000
0{
#667500
b0000000000011110 #
b0000000000011101 @
b01 M
b10 N
1{
b00100000 }
b0000000000011101 !!
#670000
0{
#672500
1J
b11011010 K
b10 M
b11 N
1{
0~
#675000
0{
#677500
1%
0'
b11 (
b010 )
b111 *
b00 2
b11 3
15
b001 7
b01 >
b00100000 B
b0000000000011110 F
0J
b11 M
b00 N
b11011010 R
b11001010 t
b11011010 u
b00100000 v
b11011010 w
b11001010 z
1{
#680000
0{
#682500
b0000000000000000 #
b00 M
b01 N
b001 W
0Z
1^
b11 a
b010 b
b111 c
b00001 d
0e
b00 l
b01 p
b11 q
b0000 s
b10110010 t
b10010100 u
b00011110 v
b010110010 y
b00000000 z
1{
1~
b0000000000000000 !!
#685000
0{
#687500
b0000000000011110 @
b01 M
b10 N
1{
b00000101 }
#690000
0{
#692500
b10 2
b0000 E
b10110010 H
b10 M
b11 N
b11010000 t
b10110010 u
b011010000 y
1{
0~
#695000
0{
#697500
b00 2
b00000101 H
b00000000 I
b11 M
b00 N
b00100011 t
b00000101 u
b000100011 y
1{
#700000
0{
#702500
b0000000000000001 #
b01 2
b00 3
14
05
b010 7
b10 8
b001 A
b00 M
b01 N
b010 W
0^
b10 `
b01 l
1n
b00 q
1{
1~
#705000
0{
#707500
b0000000000000101 @
b01 M
b10 N
1{
b00000100 }
#710000
0{
#712500
b00100011 H
b10 M
b11 N
b01000001 t
b00100011 u
b001000001 y
1{
0~
#715000
0{
#717500
b0000000000100011 @
b0000000000100011 F
b11 M
b00 N
b01000110 t
b00100011 v
b001000110 y
1{
b11010110 }
#720000
0{
#722500
b0000000000100100 #
1'
b00 (
04
b000 7
b00 8
b00 >
b010 A
b00 M
b01 N
b000 W
1Z
b00 `
b00 a
0n
b00 p
1{
1~
b0000000000100011 !!
#725000
0{
#727500
b01 M
b10 N
1{
#730000
0{
#732500
b10 M
b11 N
1{
0~
#735000
0{
#737500
b11010110 B
b0000000000100100 F
b11 M
b00 N
b01000111 t
b00100100 v
b001000111 y
1{
#740000
0{
#742500
0'
15
b001 7
b000 A
b00 M
b01 N
b001 W
0Z
1^
1{
1~
#745000
0{
#747500
b0000000000100101 #
b0000000000100100 @
b01 M
b10 N
1{
b00000101 }
b0000000000100100 !!
#750000
0{
#752500
b10 M
b11 N
1{
0~
#755000
0{
#757500
b0000000000100101 F
b00000101 H
b11 M
b00 N
b0010 s
b00101010 t
b00000101 u
b00100101 v
b000101010 y
1{
#760000
0{
#762500
1'
b01 (
b100 )
b010 *
b00011 +
05
b000 7
b001 A
b00 M
b01 N
b000 W
1Z
0^
b01 a
b100 b
b010 c
b00011 d
b0110 s
b10001111 t
b10010100 u
b00000101 v
b010001111 y
1{
1~
#765000
0{
#767500
b0000000000100110 #
b0000000000100101 @
b01 M
b10 N
1{
b00010010 }
b0000000000100101 !!
#770000
0{
#772500
b10001111 D
b0110 E
b10 M
b11 N
b0100 s
b10001010 t
b10001111 u
b010001010 y
1{
0~
#775000
0{
#777500
b00010010 B
b0000000000100110 F
b11 M
b00 N
1{
#780000
0{
#782500
0'
b00 (
b01 1
b10 3
b001 7
b01 8
1:
b000 A
b00 M
b01 N
1V
b001 W
0Z
b01 `
b00 a
b01 j
b10 q
b1101101011011010 x
1{
1~
#785000
0{
#787500
b1101101011011011 #
b1101101011011010 @
b01 M
b10 N
1{
b00000000 }
b1101101011011010 !!
#790000
0{
#792500
b0100 E
b10 M
b11 N
1{
b10010100 }
0~
#795000
0{
#797500
b10001111 ?
b11 M
b00 N
1{
#800000
0{
#802500
1'
b00 3
b000 7
b00 8
0:
b001 A
b00 M
b01 N
0V
b000 W
1Z
b00 `
b00 q
1{
b10001111 }
1~
#805000
0{
#807500
b0000000000100111 #
b0000000000100110 @
b01 M
b10 N
1{
b11010110 }
b0000000000100110 !!
#810000
0{
#812500
b10 M
b11 N
1{
0~
#815000
0{
#817500
b01 (
b11010110 B
b0000000000100111 F
b11 M
b00 N
1{
#820000
0{
#822500
0'
b00 (
15
b001 7
b000 A
b00 M
b01 N
b001 W
0Z
1^
1{
1~
#825000
0{
#827500
b0000000000101000 #
b0000000000100111 @
b01 M
b10 N
1{
b00010111 }
b0000000000100111 !!
#830000
0{
#832500
b10 M
b11 N
1{
0~
#835000
0{
#837500
b0000000000101000 F
b00010111 H
b11 M
b00 N
b01111000 t
b00010111 v
b001111000 y
1{
#840000
0{
#842500
1'
b01 (
05
b000 7
b001 A
b00 M
b01 N
b000 W
1Z
0^
b01 a
1{
1~
#845000
0{
#847500
b0000000000101001 #
b0000000000101000 @
b01 M
b10 N
1{
b00011010 }
b0000000000101000 !!
#850000
0{
#852500
b01111000 D
b10 M
b11 N
b01100001 t
b01111000 u
b001100001 y
1{
0~
#855000
0{
#857500
b010 )
b00000 +
b00011010 B
b0000000000101001 F
b11 M
b00 N
1{
#860000
0{
#862500
0'
b00 (
b10 3
15
b001 7
b01 8
b000 A
b00 M
b01 N
b001 W
0Z
1^
b01 `
b00 a
b010 b
b00000 d
b10 q
b00010111 t
b00010111 u
b000000000 y
1{
1~
#865000
0{
#867500
b1101101011011011 #
b1101101011011010 @
b01 M
b10 N
1{
b10001111 }
b1101101011011010 !!
#870000
0{
#872500
b10 M
b11 N
1{
0~
#875000
0{
#877500
b10001111 H
b11 M
b00 N
b10001111 t
b10001111 u
b10001111 v
1{
#880000
0{
#882500
1'
b01 (
b00 3
05
b000 7
b00 8
b001 A
b00 M
b01 N
b000 W
1Z
0^
b00 `
b01 a
b00 q
1{
1~
#885000
0{
#887500
b0000000000101010 #
b0000000000101001 @
b01 M
b10 N
1{
b00000011 }
b0000000000101001 !!
#890000
0{
#892500
b10001111 D
b10 M
b11 N
1{
0~
#895000
0{
#897500
b00000011 B
b0000000000101010 F
b11 M
b00 N
1{
#900000
0{
#902500
b0000001011101011 #
0'
b00 (
1/
b00 0
b00 1
b01 3
b001 7
b10 >
b000 A
b00 M
b01 N
b001 W
0Z
b00 a
1h
b00 i
b00 j
b10 p
b01 q
b0000001011101010 x
1{
1~
b0000001011101010 !!
